"A","A","A","A","A",98.1912069855,1.31075708905
"A","A","A","A","C",88.4092744588,1.52757169291
"A","A","A","A","G",95.8661829634,1.28386378213
"A","A","A","A","T",87.8848077049,1.44096049954
"A","A","A","C","A",98.7848175219,1.34964043876
"A","A","A","C","C",96.0660859585,1.40012777685
"A","A","A","C","G",97.8936813293,1.26729986922
"A","A","A","C","T",95.3236481216,1.24664583669
"A","A","A","G","A",94.5571828864,1.34747548816
"A","A","A","G","C",90.4293486101,1.26630020673
"A","A","A","G","G",93.3071104184,1.28295066144
"A","A","A","G","T",88.2236065514,1.34070690526
"A","A","A","T","A",93.1045676393,1.59766988968
"A","A","A","T","C",86.9489422565,1.75908605744
"A","A","A","T","G",90.8362940315,1.56974065685
"A","A","A","T","T",80.9483274043,1.81405019046
"A","A","C","A","A",119.582624736,2.02534836413
"A","A","C","A","C",111.944170454,1.59455365811
"A","A","C","A","G",116.762401332,1.92087508975
"A","A","C","A","T",111.895007192,1.81654993809
"A","A","C","C","A",119.526829256,1.74319101678
"A","A","C","C","C",116.407735311,1.47450984172
"A","A","C","C","G",117.973665638,1.69552326043
"A","A","C","C","T",115.339990166,1.73549443628
"A","A","C","G","A",114.188293293,1.92898632304
"A","A","C","G","C",111.485745257,1.71124918897
"A","A","C","G","G",113.253139469,1.84197657623
"A","A","C","G","T",110.307262942,1.92429742146
"A","A","C","T","A",111.643388682,1.61710186376
"A","A","C","T","C",105.762976007,1.57737336678
"A","A","C","T","G",108.832532088,1.53938206634
"A","A","C","T","T",99.3444876352,1.34580620976
"A","A","G","A","A",89.8860750286,1.52764610839
"A","A","G","A","C",79.6783281865,1.94064355429
"A","A","G","A","G",87.6995058544,1.54762885145
"A","A","G","A","T",78.5652899213,1.75958142524
"A","A","G","C","A",97.503581831,1.41520921948
"A","A","G","C","C",94.4417670255,1.52258619032
"A","A","G","C","G",95.0227726612,1.42163907034
"A","A","G","C","T",93.1643240914,1.34023921837
"A","A","G","G","A",88.6861180952,1.58327140198
"A","A","G","G","C",84.1279506692,1.56830156335
"A","A","G","G","G",89.1782435614,1.40095107119
"A","A","G","G","T",81.7484962592,1.57210356921
"A","A","G","T","A",84.9702814956,1.71820212375
"A","A","G","T","C",79.4487679699,2.13751151918
"A","A","G","T","G",82.2494575134,1.92495896654
"A","A","G","T","T",73.5746890672,2.20425059107
"A","A","T","A","A",123.353249109,2.76225415014
"A","A","T","A","C",119.573172916,2.59642356487
"A","A","T","A","G",122.293208116,2.5789797852
"A","A","T","A","T",122.090358521,2.9487249879
"A","A","T","C","A",130.46664304,2.43100265023
"A","A","T","C","C",131.749534095,2.72604456923
"A","A","T","C","G",131.662423214,2.59813461245
"A","A","T","C","T",131.660311073,2.86127944898
"A","A","T","G","A",119.571507784,2.60187228729
"A","A","T","G","C",120.849552387,2.61847062049
"A","A","T","G","G",120.870317875,2.68739771464
"A","A","T","G","T",124.079823644,3.18242084748
"A","A","T","T","A",119.046678828,2.01174815743
"A","A","T","T","C",113.182659681,2.0335646815
"A","A","T","T","G",115.909383823,2.01612572868
"A","A","T","T","T",108.716878793,1.8611546931
"A","C","A","A","A",103.426798907,1.98751145043
"A","C","A","A","C",95.6860802851,1.90327002078
"A","C","A","A","G",102.619933574,1.98527082052
"A","C","A","A","T",93.9903446345,2.08455986262
"A","C","A","C","A",106.276062158,1.2339340916
"A","C","A","C","C",104.052450479,1.35075131094
"A","C","A","C","G",105.674458008,1.26454131755
"A","C","A","C","T",101.433578096,1.35924532373
"A","C","A","G","A",98.5220918748,1.9785419971
"A","C","A","G","C",95.5723118468,1.72933538798
"A","C","A","G","G",97.7784512098,1.88990149432
"A","C","A","G","T",91.7974166749,2.06948868289
"A","C","A","T","A",99.3576862813,1.88521954558
"A","C","A","T","C",93.7932718528,2.20407514276
"A","C","A","T","G",97.1765214973,1.99814779539
"A","C","A","T","T",87.0960864222,2.24021995773
"A","C","C","A","A",115.444031666,1.55798809251
"A","C","C","A","C",107.98122449,1.39986383518
"A","C","C","A","G",112.914988686,1.61300869001
"A","C","C","A","T",107.192264525,1.72234045547
"A","C","C","C","A",114.162049031,1.23995064516
"A","C","C","C","C",112.646109244,1.22251441609
"A","C","C","C","G",113.516161099,1.22665869679
"A","C","C","C","T",110.515824125,1.32214022475
"A","C","C","G","A",109.186486233,1.67224622215
"A","C","C","G","C",106.766903171,1.49120577759
"A","C","C","G","G",109.825109539,1.6286007434
"A","C","C","G","T",104.62386743,1.85925825894
"A","C","C","T","A",108.702748984,1.66215881785
"A","C","C","T","C",103.154224448,1.92549498404
"A","C","C","T","G",106.139127336,1.60630772239
"A","C","C","T","T",97.185175457,1.86708567026
"A","C","G","A","A",96.6525484359,2.01178410825
"A","C","G","A","C",87.0531100842,1.97846566733
"A","C","G","A","G",95.1081218636,1.86560190082
"A","C","G","A","T",84.647765666,1.96493762702
"A","C","G","C","A",101.350546523,1.41801203287
"A","C","G","C","C",98.432562957,1.59988313904
"A","C","G","C","G",99.1711994981,1.50443930703
"A","C","G","C","T",96.3435503248,1.56873234908
"A","C","G","G","A",94.8028781884,2.18162472171
"A","C","G","G","C",91.6433271919,1.78548984466
"A","C","G","G","G",95.5779632366,1.9666577103
"A","C","G","G","T",89.3666747109,2.09225136122
"A","C","G","T","A",91.1494605414,2.0005682499
"A","C","G","T","C",85.6214856081,2.35382345393
"A","C","G","T","G",87.6986208807,2.16646196818
"A","C","G","T","T",79.558290498,2.39286818066
"A","C","T","A","A",122.749793677,2.0331549631
"A","C","T","A","C",118.497843697,1.87656324148
"A","C","T","A","G",120.513292944,1.98114179775
"A","C","T","A","T",119.503881173,2.14787787694
"A","C","T","C","A",126.859734538,2.02974694432
"A","C","T","C","C",126.340717018,1.93474659227
"A","C","T","C","G",126.432447393,2.09025655452
"A","C","T","C","T",126.841712555,2.05517200782
"A","C","T","G","A",116.776043549,1.880795569
"A","C","T","G","C",116.15467364,1.896398006
"A","C","T","G","G",116.892535784,1.88952721773
"A","C","T","G","T",117.769539688,2.1873296332
"A","C","T","T","A",114.379314371,1.62666686039
"A","C","T","T","C",109.573646256,1.58964509244
"A","C","T","T","G",111.932142947,1.47591338982
"A","C","T","T","T",106.084167364,1.4837936746
"A","G","A","A","A",90.1538135752,1.36230722474
"A","G","A","A","C",80.3713247226,1.71767761974
"A","G","A","A","G",87.8998980046,1.37678969182
"A","G","A","A","T",79.5604247773,1.55814339069
"A","G","A","C","A",95.4646196184,1.72155234406
"A","G","A","C","C",92.328916303,1.65837552348
"A","G","A","C","G",94.0923139724,1.54732852924
"A","G","A","C","T",91.1139658442,1.4153167262
"A","G","A","G","A",89.9305579615,1.3016354916
"A","G","A","G","C",83.562309556,1.38627903578
"A","G","A","G","G",88.9639874285,1.27638881158
"A","G","A","G","T",83.3343076351,1.35247063111
"A","G","A","T","A",87.7880520077,1.80703527342
"A","G","A","T","C",83.0032167578,2.22006974808
"A","G","A","T","G",85.3501077488,1.65162731932
"A","G","A","T","T",76.608806656,1.7199145828
"A","G","C","A","A",117.0767475,2.00199430528
"A","G","C","A","C",108.976895575,1.63901609446
"A","G","C","A","G",114.559974336,1.97857621005
"A","G","C","A","T",108.339665452,1.93758989894
"A","G","C","C","A",117.759507713,1.6726010556
"A","G","C","C","C",115.271907531,1.51226811184
"A","G","C","C","G",116.778723416,1.80848329986
"A","G","C","C","T",114.497226683,1.79523251141
"A","G","C","G","A",112.368093939,1.92926048275
"A","G","C","G","C",109.020070359,1.73686950503
"A","G","C","G","G",112.24748918,1.98315889662
"A","G","C","G","T",108.55250558,2.01122743037
"A","G","C","T","A",110.840055067,1.75615573342
"A","G","C","T","C",103.331830706,1.82007608215
"A","G","C","T","G",107.733604803,1.62660210808
"A","G","C","T","T",98.0068406241,1.46316072956
"A","G","G","A","A",82.3085630564,1.65848213647
"A","G","G","A","C",71.5468360222,2.03672623539
"A","G","G","A","G",80.5919720922,1.54229864363
"A","G","G","A","T",71.0093440533,1.96232894437
"A","G","G","C","A",94.173374015,1.59002447358
"A","G","G","C","C",90.8675658155,1.62838609772
"A","G","G","C","G",92.373806422,1.51277159754
"A","G","G","C","T",89.350654621,1.48936924239
"A","G","G","G","A",84.3135694549,1.46287443113
"A","G","G","G","C",78.8406491869,1.6250525979
"A","G","G","G","G",85.2431807298,1.23545421569
"A","G","G","G","T",79.0357948698,1.47194487258
"A","G","G","T","A",82.3072427572,1.9023668959
"A","G","G","T","C",75.7925463545,1.94182928712
"A","G","G","T","G",78.3199737824,1.83300598249
"A","G","G","T","T",71.4593634523,2.01580340348
"A","G","T","A","A",119.588670295,2.60063430287
"A","G","T","A","C",114.362390863,2.20743481393
"A","G","T","A","G",117.587341594,2.56597333411
"A","G","T","A","T",117.044729452,2.78020829909
"A","G","T","C","A",128.260581,2.60893251035
"A","G","T","C","C",127.050711672,2.64809491566
"A","G","T","C","G",126.953846368,2.77116547864
"A","G","T","C","T",126.829250877,3.07448937867
"A","G","T","G","A",116.337780952,2.37313457925
"A","G","T","G","C",117.060233146,2.47915148614
"A","G","T","G","G",117.543867462,2.53136520021
"A","G","T","G","T",120.404680446,2.98021331396
"A","G","T","T","A",113.296010641,2.35569176844
"A","G","T","T","C",109.047169406,2.29271995239
"A","G","T","T","G",110.914968666,2.22679542679
"A","G","T","T","T",104.962922756,1.87393054754
"A","T","A","A","A",105.304622753,1.92803005143
"A","T","A","A","C",96.6244512552,1.98607279623
"A","T","A","A","G",103.403858143,1.8988407911
"A","T","A","A","T",96.1297851343,2.18630646229
"A","T","A","C","A",107.04466958,1.49071528495
"A","T","A","C","C",104.034516981,1.52041920756
"A","T","A","C","G",105.078461387,1.44231896515
"A","T","A","C","T",102.949493807,1.63228650631
"A","T","A","G","A",101.95589158,2.0571637844
"A","T","A","G","C",98.5689046161,1.9052788362
"A","T","A","G","G",102.820233759,1.83785437956
"A","T","A","G","T",95.7166312738,2.30296715195
"A","T","A","T","A",101.27251081,1.99163093738
"A","T","A","T","C",96.7418798357,2.36643503795
"A","T","A","T","G",98.7304448265,2.05048062631
"A","T","A","T","T",91.0111897767,2.5961148417
"A","T","C","A","A",116.45131386,1.92815930519
"A","T","C","A","C",110.67621306,2.00703746685
"A","T","C","A","G",114.985811083,1.99094404232
"A","T","C","A","T",108.479294818,2.23694231228
"A","T","C","C","A",115.782049441,1.60669516604
"A","T","C","C","C",112.947827664,1.57110833361
"A","T","C","C","G",114.727718716,1.75299066368
"A","T","C","C","T",111.275424415,1.82942016697
"A","T","C","G","A",112.242923938,2.13431534587
"A","T","C","G","C",109.371905545,2.00047734836
"A","T","C","G","G",112.338355228,2.15381652988
"A","T","C","G","T",107.97106043,2.38188587599
"A","T","C","T","A",110.574272846,2.04123933427
"A","T","C","T","C",105.651071545,2.39008923368
"A","T","C","T","G",107.823769879,2.08955416247
"A","T","C","T","T",99.3382574097,2.49433769257
"A","T","G","A","A",98.6508069728,2.26244781258
"A","T","G","A","C",88.1435910665,2.0879717035
"A","T","G","A","G",97.974887887,2.28715612523
"A","T","G","A","T",87.4196645232,2.34430856172
"A","T","G","C","A",104.187084121,1.52770653618
"A","T","G","C","C",102.16094661,1.75187435418
"A","T","G","C","G",102.735270348,1.65118140317
"A","T","G","C","T",100.687182463,1.73284556414
"A","T","G","G","A",101.492154826,2.44373489004
"A","T","G","G","C",97.3001377068,2.17077368301
"A","T","G","G","G",101.818774618,2.18218187497
"A","T","G","G","T",95.0951004438,2.48715490964
"A","T","G","T","A",97.4863745667,2.22399729969
"A","T","G","T","C",93.771976861,2.58345060496
"A","T","G","T","G",94.009531246,2.40466380951
"A","T","G","T","T",88.2334036747,2.79896197715
"A","T","T","A","A",119.999332419,1.64948255921
"A","T","T","A","C",115.444877938,1.47394119632
"A","T","T","A","G",118.239293327,1.60717117898
"A","T","T","A","T",116.015728888,1.83224106968
"A","T","T","C","A",122.069009424,1.56518213341
"A","T","T","C","C",120.486515162,1.5266935593
"A","T","T","C","G",121.247228729,1.56288024573
"A","T","T","C","T",121.259909013,1.73380758732
"A","T","T","G","A",115.483744384,1.63765246629
"A","T","T","G","C",113.297677014,1.48052932822
"A","T","T","G","G",116.082445711,1.56585085507
"A","T","T","G","T",115.308477246,1.73556619134
"A","T","T","T","A",112.112675735,1.2458686975
"A","T","T","T","C",107.895189514,1.38550060957
"A","T","T","T","G",110.016280669,1.26485357504
"A","T","T","T","T",104.131879298,1.28833558483
"C","A","A","A","A",97.6288074967,1.44842704396
"C","A","A","A","C",88.1377529049,1.72952119861
"C","A","A","A","G",94.9831118671,1.43878608046
"C","A","A","A","T",87.3043243368,1.57366344212
"C","A","A","C","A",100.248598183,1.29503125406
"C","A","A","C","C",97.015691422,1.38955104931
"C","A","A","C","G",98.6060986167,1.28298919526
"C","A","A","C","T",95.3293398845,1.26736204314
"C","A","A","G","A",95.1761948387,1.43362607558
"C","A","A","G","C",89.9745130426,1.47186195329
"C","A","A","G","G",93.5116360112,1.38571956473
"C","A","A","G","T",88.1804905535,1.5312352835
"C","A","A","T","A",92.9832015888,1.60014665112
"C","A","A","T","C",86.0567235521,1.86452842629
"C","A","A","T","G",90.2947488044,1.6308508014
"C","A","A","T","T",80.6414283094,1.95718889083
"C","A","C","A","A",118.276900079,1.81922628467
"C","A","C","A","C",109.99927075,1.36055667103
"C","A","C","A","G",114.15964023,1.72396213641
"C","A","C","A","T",109.850955208,1.61360349285
"C","A","C","C","A",117.721235725,1.50478832885
"C","A","C","C","C",114.793179922,1.38606262446
"C","A","C","C","G",116.483175269,1.58125807871
"C","A","C","C","T",114.152269226,1.60311632665
"C","A","C","G","A",112.035771827,1.66134562261
"C","A","C","G","C",108.826006633,1.42010203645
"C","A","C","G","G",112.01121558,1.68184093775
"C","A","C","G","T",108.078468366,1.72678172115
"C","A","C","T","A",110.485845458,1.52927592426
"C","A","C","T","C",103.648229889,1.62472303815
"C","A","C","T","G",107.408608524,1.438041722
"C","A","C","T","T",96.8990849206,1.41141250482
"C","A","G","A","A",88.8961936001,1.72650176816
"C","A","G","A","C",77.8599517339,2.05355201275
"C","A","G","A","G",87.2152512007,1.61716684049
"C","A","G","A","T",77.4050743438,1.95786408276
"C","A","G","C","A",97.1909923256,1.47416792338
"C","A","G","C","C",93.9081002265,1.51335677656
"C","A","G","C","G",95.1386717048,1.42323673486
"C","A","G","C","T",91.744272285,1.3796964925
"C","A","G","G","A",86.5542565102,1.698905925
"C","A","G","G","C",82.6023299254,1.71316490799
"C","A","G","G","G",87.4361381797,1.54190423046
"C","A","G","G","T",81.6636905974,1.63791569442
"C","A","G","T","A",85.7337998781,1.87992864785
"C","A","G","T","C",79.3011356494,2.19152900728
"C","A","G","T","G",82.4561775813,1.9756711844
"C","A","G","T","T",73.426857551,2.28152980009
"C","A","T","A","A",119.994453784,2.35955123227
"C","A","T","A","C",115.940250497,2.36496849226
"C","A","T","A","G",117.354406865,2.28164325624
"C","A","T","A","T",118.152735675,2.76012911088
"C","A","T","C","A",129.532634381,2.51169471444
"C","A","T","C","C",129.180949351,2.50469358673
"C","A","T","C","G",128.431694087,2.52882414448
"C","A","T","C","T",129.107434454,2.5499811902
"C","A","T","G","A",115.779705711,2.46169175778
"C","A","T","G","C",116.816417788,2.36028248214
"C","A","T","G","G",117.250907867,2.34055956937
"C","A","T","G","T",120.207266252,2.7042372892
"C","A","T","T","A",115.298367474,1.98795706055
"C","A","T","T","C",110.082567915,1.94255897452
"C","A","T","T","G",111.529498163,1.89517173531
"C","A","T","T","T",105.729188535,1.67471895974
"C","C","A","A","A",104.278473376,1.82898032065
"C","C","A","A","C",94.778041829,1.8904948121
"C","C","A","A","G",101.831918864,1.88996390962
"C","C","A","A","T",92.865975072,1.92685576274
"C","C","A","C","A",106.815817589,1.19256053309
"C","C","A","C","C",104.605084226,1.29097075748
"C","C","A","C","G",106.14360454,1.22569431274
"C","C","A","C","T",101.496765741,1.30050843633
"C","C","A","G","A",98.0416403362,1.91685929005
"C","C","A","G","C",94.82943405,1.67339674552
"C","C","A","G","G",98.3909093221,1.81572741409
"C","C","A","G","T",90.9007684291,1.94850372705
"C","C","A","T","A",99.827576124,1.7874299661
"C","C","A","T","C",93.2613124963,2.09576134168
"C","C","A","T","G",96.1819793128,1.88763476377
"C","C","A","T","T",86.9778493375,2.20589317594
"C","C","C","A","A",117.597992481,1.38749019158
"C","C","C","A","C",109.600593781,1.28477482971
"C","C","C","A","G",114.495875684,1.42041542177
"C","C","C","A","T",108.306510358,1.59665947256
"C","C","C","C","A",116.472198157,1.21682556077
"C","C","C","C","C",113.1157619,1.14183236526
"C","C","C","C","G",115.360880978,1.21718800914
"C","C","C","C","T",111.126369831,1.27878875874
"C","C","C","G","A",110.826955418,1.51237529898
"C","C","C","G","C",107.761802446,1.37406365929
"C","C","C","G","G",110.393397312,1.46470921124
"C","C","C","G","T",106.090822431,1.64560233296
"C","C","C","T","A",109.574315366,1.42849296787
"C","C","C","T","C",104.626214574,1.66591115722
"C","C","C","T","G",107.049826124,1.51089489011
"C","C","C","T","T",97.4318351449,1.72377649193
"C","C","G","A","A",95.50099168,1.85782211686
"C","C","G","A","C",86.6171184597,1.89740738222
"C","C","G","A","G",93.3590299605,1.74159261608
"C","C","G","A","T",84.7115002596,1.84791824645
"C","C","G","C","A",102.412948082,1.33722482011
"C","C","G","C","C",99.3264894865,1.50948037075
"C","C","G","C","G",99.8504283219,1.45579668525
"C","C","G","C","T",96.7310765832,1.44124657994
"C","C","G","G","A",94.6546174962,1.99931774903
"C","C","G","G","C",91.0334227792,1.72930977973
"C","C","G","G","G",94.7555873499,1.82622419023
"C","C","G","G","T",88.7970723185,1.98856979251
"C","C","G","T","A",91.1455520158,1.93830903497
"C","C","G","T","C",85.5024649248,2.19498997525
"C","C","G","T","G",87.842042325,2.10415785333
"C","C","G","T","T",78.8340926321,2.28732091482
"C","C","T","A","A",125.092160676,2.18301730831
"C","C","T","A","C",119.865648541,2.17023818532
"C","C","T","A","G",121.735416368,2.1411847919
"C","C","T","A","T",121.700224032,2.32604538398
"C","C","T","C","A",130.644015602,2.18247234552
"C","C","T","C","C",128.93604485,2.14977345205
"C","C","T","C","G",129.107175322,2.22910652387
"C","C","T","C","T",128.606509453,2.32443889206
"C","C","T","G","A",118.440630168,2.15544067601
"C","C","T","G","C",118.524695667,2.07296340161
"C","C","T","G","G",119.680832868,2.16365933394
"C","C","T","G","T",120.450557423,2.48085680313
"C","C","T","T","A",117.510710501,1.7048690511
"C","C","T","T","C",112.19311783,1.73146321598
"C","C","T","T","G",115.309453779,1.66453230569
"C","C","T","T","T",108.530455041,1.60858781639
"C","G","A","A","A",90.5656945724,1.49439538866
"C","G","A","A","C",79.9094413961,1.954585432
"C","G","A","A","G",88.0898680563,1.50990379056
"C","G","A","A","T",79.3586898262,1.83411459556
"C","G","A","C","A",96.2278227717,1.57130358026
"C","G","A","C","C",93.5235507217,1.5600243059
"C","G","A","C","G",95.6389586578,1.4631027127
"C","G","A","C","T",91.7780127436,1.44667152678
"C","G","A","G","A",89.3818030487,1.49462249565
"C","G","A","G","C",83.2306419505,1.58761655756
"C","G","A","G","G",89.1390555986,1.36769052705
"C","G","A","G","T",83.0344920427,1.48559525715
"C","G","A","T","A",88.9419185496,1.82434711231
"C","G","A","T","C",83.1948279406,2.26077397351
"C","G","A","T","G",86.55038376,1.85800158017
"C","G","A","T","T",76.6666605148,1.90081471255
"C","G","C","A","A",118.414842419,1.99610930861
"C","G","C","A","C",109.433635063,1.55886465439
"C","G","C","A","G",115.113242097,1.93210743167
"C","G","C","A","T",108.147250068,1.77970030533
"C","G","C","C","A",118.556210424,1.68960215264
"C","G","C","C","C",116.002519695,1.54358086043
"C","G","C","C","G",116.951771885,1.76618493369
"C","G","C","C","T",114.455988323,1.78159674186
"C","G","C","G","A",112.941287416,1.92733374918
"C","G","C","G","C",108.810744714,1.68404726813
"C","G","C","G","G",112.505080048,1.87810038124
"C","G","C","G","T",108.91535685,1.95503507545
"C","G","C","T","A",110.300801883,1.62312979875
"C","G","C","T","C",103.201877499,1.78743207056
"C","G","C","T","G",108.062707007,1.58387404851
"C","G","C","T","T",98.2805806349,1.41387383418
"C","G","G","A","A",83.3734533671,1.78135392354
"C","G","G","A","C",70.6676081813,2.14564788891
"C","G","G","A","G",81.070415184,1.82883717057
"C","G","G","A","T",71.6810767356,2.11792372709
"C","G","G","C","A",95.5348811429,1.4357246743
"C","G","G","C","C",93.1613064288,1.6628293361
"C","G","G","C","G",94.6943938439,1.47215098776
"C","G","G","C","T",90.8780986561,1.41685199704
"C","G","G","G","A",86.0871325642,1.6825427082
"C","G","G","G","C",81.1106948464,1.88568434965
"C","G","G","G","G",86.195417774,1.50844159469
"C","G","G","G","T",78.8772715334,1.63070137686
"C","G","G","T","A",83.4524372955,1.82006140773
"C","G","G","T","C",77.7235495415,2.1956816325
"C","G","G","T","G",79.9549246786,1.95218278557
"C","G","G","T","T",71.5253012904,2.21257778046
"C","G","T","A","A",118.820298142,2.61294414686
"C","G","T","A","C",114.035580789,2.28845200284
"C","G","T","A","G",116.992057798,2.54439840219
"C","G","T","A","T",116.87909101,2.78780906221
"C","G","T","C","A",128.763505875,2.68606553908
"C","G","T","C","C",127.573423754,2.65492172182
"C","G","T","C","G",128.266658743,2.71906905402
"C","G","T","C","T",128.603396766,2.85531395566
"C","G","T","G","A",115.560410639,2.54620390694
"C","G","T","G","C",116.091714193,2.49235947604
"C","G","T","G","G",116.676844718,2.53663688981
"C","G","T","G","T",119.256708759,2.84335029204
"C","G","T","T","A",113.435042252,2.3595576748
"C","G","T","T","C",108.413603667,2.31957062735
"C","G","T","T","G",110.606886009,2.22488464431
"C","G","T","T","T",103.973236409,1.93094169454
"C","T","A","A","A",106.455714425,1.89770304449
"C","T","A","A","C",96.603264036,1.92412757604
"C","T","A","A","G",102.515167575,1.94009197499
"C","T","A","A","T",96.1476716492,2.19715462342
"C","T","A","C","A",107.589590428,1.38071121453
"C","T","A","C","C",105.460771645,1.54057778622
"C","T","A","C","G",105.920220649,1.41292160953
"C","T","A","C","T",103.680533791,1.53519754516
"C","T","A","G","A",103.985698129,1.92360033754
"C","T","A","G","C",98.9401833603,2.03508142638
"C","T","A","G","G",102.217114128,1.91762691141
"C","T","A","G","T",97.889654923,2.06592660023
"C","T","A","T","A",102.274228214,1.91392122644
"C","T","A","T","C",97.9129648292,2.51366772341
"C","T","A","T","G",98.6739947387,1.92970335669
"C","T","A","T","T",92.4844215247,2.53859926402
"C","T","C","A","A",115.710404442,1.85532577648
"C","T","C","A","C",110.068961,1.72036567166
"C","T","C","A","G",114.609810131,2.06667189519
"C","T","C","A","T",108.58312054,2.02409526382
"C","T","C","C","A",113.856050401,1.52748296333
"C","T","C","C","C",111.763265936,1.45697036336
"C","T","C","C","G",113.447132958,1.59388979574
"C","T","C","C","T",111.069034139,1.71408879449
"C","T","C","G","A",111.580345519,2.03961090697
"C","T","C","G","C",108.41791489,1.94981756167
"C","T","C","G","G",111.092555247,2.01568208549
"C","T","C","G","T",106.813625432,2.17288311291
"C","T","C","T","A",109.69280961,1.93782690567
"C","T","C","T","C",105.560742499,2.29080041037
"C","T","C","T","G",107.246535751,1.93395148871
"C","T","C","T","T",99.0144403536,2.28678663196
"C","T","G","A","A",97.8309262315,2.23877960211
"C","T","G","A","C",88.172106087,2.12969477596
"C","T","G","A","G",97.1099850069,2.19531647776
"C","T","G","A","T",87.0115656497,2.31264507309
"C","T","G","C","A",103.439771657,1.47463057899
"C","T","G","C","C",101.210607961,1.70012299428
"C","T","G","C","G",102.453068974,1.59480759188
"C","T","G","C","T",99.45197079,1.71666682084
"C","T","G","G","A",99.3288784995,2.26191575973
"C","T","G","G","C",95.7513809866,2.00140488073
"C","T","G","G","G",100.098385599,2.04341852895
"C","T","G","G","T",94.020436942,2.32729046129
"C","T","G","T","A",96.4438709464,2.11104163865
"C","T","G","T","C",93.5286783967,2.55525229511
"C","T","G","T","G",93.8938617338,2.35212155872
"C","T","G","T","T",86.7554271392,2.84313525253
"C","T","T","A","A",117.652135912,1.62876261575
"C","T","T","A","C",113.737817499,1.53969168972
"C","T","T","A","G",115.21067951,1.49978121368
"C","T","T","A","T",114.460759909,1.84419007889
"C","T","T","C","A",120.376366025,1.65374003387
"C","T","T","C","C",118.259455402,1.62302009891
"C","T","T","C","G",118.867099708,1.6495936589
"C","T","T","C","T",119.753391775,1.83557780849
"C","T","T","G","A",113.641449407,1.74032437511
"C","T","T","G","C",112.215201402,1.56398387646
"C","T","T","G","G",113.743527878,1.68744052
"C","T","T","G","T",113.526954819,1.84067682597
"C","T","T","T","A",109.910865792,1.36508586222
"C","T","T","T","C",105.83380759,1.43814806476
"C","T","T","T","G",107.826401893,1.30772523748
"C","T","T","T","T",103.245218039,1.30229572921
"G","A","A","A","A",95.2957259583,1.33134816706
"G","A","A","A","C",85.8360467181,1.46606161143
"G","A","A","A","G",93.0598726345,1.29164404902
"G","A","A","A","T",85.5453795365,1.34302594488
"G","A","A","C","A",98.1896158033,1.56827279062
"G","A","A","C","C",95.323174872,1.61716423109
"G","A","A","C","G",97.1191324586,1.50260815907
"G","A","A","C","T",94.3441706847,1.39023077744
"G","A","A","G","A",93.4838228668,1.29845682428
"G","A","A","G","C",88.2187510024,1.29546876216
"G","A","A","G","G",92.5955816927,1.26322740911
"G","A","A","G","T",86.2599773747,1.25826846064
"G","A","A","T","A",90.8557794943,1.68664909051
"G","A","A","T","C",84.6953431606,1.84660544213
"G","A","A","T","G",88.463148164,1.65186156421
"G","A","A","T","T",78.7126198779,1.67192831195
"G","A","C","A","A",118.543997764,2.08264842778
"G","A","C","A","C",110.3936193,1.6456615598
"G","A","C","A","G",115.779311117,2.03973310783
"G","A","C","A","T",109.764440696,1.86495537448
"G","A","C","C","A",118.476908735,1.8237451937
"G","A","C","C","C",115.511167545,1.61338488544
"G","A","C","C","G",116.814338816,1.76483614018
"G","A","C","C","T",114.17921124,1.86072252045
"G","A","C","G","A",113.452481929,2.02155670289
"G","A","C","G","C",109.661459223,1.71778997537
"G","A","C","G","G",112.998746474,1.89022855308
"G","A","C","G","T",109.919831089,2.01050468062
"G","A","C","T","A",110.267235125,1.58069318485
"G","A","C","T","C",103.239674712,1.87630617065
"G","A","C","T","G",108.593188064,1.62442036503
"G","A","C","T","T",97.3490980736,1.42372134478
"G","A","G","A","A",86.4600050827,1.52009709703
"G","A","G","A","C",76.6839431961,1.99366155709
"G","A","G","A","G",85.0371345114,1.48659580723
"G","A","G","A","T",74.4818131796,1.89301700845
"G","A","G","C","A",96.1489256956,1.57936614386
"G","A","G","C","C",92.9397513243,1.62543437039
"G","A","G","C","G",94.0533320981,1.58942549679
"G","A","G","C","T",91.5449084388,1.50283672121
"G","A","G","G","A",84.6597754281,1.57012148135
"G","A","G","G","C",81.7097662806,1.57813339359
"G","A","G","G","G",86.5505785662,1.49326077173
"G","A","G","G","T",80.4296599371,1.45284501129
"G","A","G","T","A",84.3245587978,1.81001631637
"G","A","G","T","C",77.63543525,1.89561995594
"G","A","G","T","G",81.051968124,1.88929855122
"G","A","G","T","T",71.3979347114,1.95096742184
"G","A","T","A","A",122.43547126,2.64651617146
"G","A","T","A","C",118.669730843,2.51031523709
"G","A","T","A","G",119.92329534,2.59205879637
"G","A","T","A","T",121.258988479,2.93569795172
"G","A","T","C","A",131.940584329,2.83460427713
"G","A","T","C","C",132.693617876,2.70956307391
"G","A","T","C","G",131.45454375,2.81004273314
"G","A","T","C","T",132.145243325,3.04290297036
"G","A","T","G","A",118.882436346,2.60937838783
"G","A","T","G","C",119.579374232,2.54795399093
"G","A","T","G","G",119.717279461,2.49612981593
"G","A","T","G","T",122.893287768,3.02718675714
"G","A","T","T","A",116.754948287,2.11019896156
"G","A","T","T","C",112.547669352,2.06801636638
"G","A","T","T","G",114.018258859,2.04711706611
"G","A","T","T","T",108.010015456,1.79518428003
"G","C","A","A","A",102.930222624,1.83268673241
"G","C","A","A","C",94.1420273662,1.83376931382
"G","C","A","A","G",100.97600915,1.8368966552
"G","C","A","A","T",92.5611852561,1.93698540106
"G","C","A","C","A",105.378330444,1.24052221522
"G","C","A","C","C",103.021631124,1.34241129394
"G","C","A","C","G",104.130654458,1.2555210412
"G","C","A","C","T",100.736199852,1.30818540191
"G","C","A","G","A",97.7430268275,1.89691975502
"G","C","A","G","C",94.0414469581,1.61100181893
"G","C","A","G","G",97.0519381228,1.81906469758
"G","C","A","G","T",90.0177166667,1.93971064687
"G","C","A","T","A",98.1404546319,1.83042010249
"G","C","A","T","C",92.5128010686,2.11234572611
"G","C","A","T","G",95.7979575697,1.81494566878
"G","C","A","T","T",85.7650004221,2.18003900637
"G","C","C","A","A",114.822326806,1.55777142982
"G","C","C","A","C",107.38465771,1.4329484304
"G","C","C","A","G",112.617706801,1.6022128423
"G","C","C","A","T",106.022530057,1.68562501178
"G","C","C","C","A",113.962635682,1.24202573081
"G","C","C","C","C",111.018365084,1.19333194854
"G","C","C","C","G",112.895330603,1.25724237106
"G","C","C","C","T",109.482635967,1.28533908376
"G","C","C","G","A",108.474155472,1.68624355102
"G","C","C","G","C",106.007626586,1.47386904777
"G","C","C","G","G",109.607415597,1.59898807649
"G","C","C","G","T",103.930249337,1.81366747343
"G","C","C","T","A",107.52252351,1.520004478
"G","C","C","T","C",103.011629197,1.90947718482
"G","C","C","T","G",105.455527188,1.56173389205
"G","C","C","T","T",95.8224449873,1.77544344821
"G","C","G","A","A",95.5087229386,1.86819560533
"G","C","G","A","C",86.157821786,1.98195032688
"G","C","G","A","G",93.8829206294,1.83409942362
"G","C","G","A","T",84.912154047,1.91109054993
"G","C","G","C","A",101.077911925,1.3800655445
"G","C","G","C","C",98.7869451674,1.56502558636
"G","C","G","C","G",99.1490074288,1.48819192435
"G","C","G","C","T",96.4486025188,1.51397104183
"G","C","G","G","A",93.2628672651,2.06806975648
"G","C","G","G","C",90.9462952711,1.76305124076
"G","C","G","G","G",95.1258411229,1.95228226555
"G","C","G","G","T",88.388600741,2.09476653074
"G","C","G","T","A",91.2670463564,2.05554734115
"G","C","G","T","C",85.603682103,2.35170024698
"G","C","G","T","G",87.2504913801,2.18309845334
"G","C","G","T","T",78.8604856478,2.34742732914
"G","C","T","A","A",119.708874951,2.00911766066
"G","C","T","A","C",116.510541876,1.86734333749
"G","C","T","A","G",118.961792825,1.98007921389
"G","C","T","A","T",117.623339684,2.17540489118
"G","C","T","C","A",126.411500015,1.97018959708
"G","C","T","C","C",125.818993138,2.0074699909
"G","C","T","C","G",125.598415559,2.03892252099
"G","C","T","C","T",125.363661677,2.15564174234
"G","C","T","G","A",115.634661455,1.91484886995
"G","C","T","G","C",115.34334292,1.84963771535
"G","C","T","G","G",116.193673737,1.90974540448
"G","C","T","G","T",116.195364282,2.28218245155
"G","C","T","T","A",113.391166947,1.59785411418
"G","C","T","T","C",109.645826993,1.5989603042
"G","C","T","T","G",111.62706363,1.5259364403
"G","C","T","T","T",105.421536245,1.45732596486
"G","G","A","A","A",87.1905930234,1.40265443915
"G","G","A","A","C",77.3248007416,1.71123554528
"G","G","A","A","G",85.1867528712,1.41161616564
"G","G","A","A","T",76.4764158963,1.45861319953
"G","G","A","C","A",91.4235964964,1.77383308267
"G","G","A","C","C",87.8222271158,1.80214423785
"G","G","A","C","G",91.0016765364,1.63792791214
"G","G","A","C","T",88.1709841177,1.5227168751
"G","G","A","G","A",86.2246421263,1.31626159502
"G","G","A","G","C",79.9858941207,1.44172316318
"G","G","A","G","G",85.5248661065,1.31610058132
"G","G","A","G","T",80.6403496506,1.26380994377
"G","G","A","T","A",85.3096618469,1.90136820158
"G","G","A","T","C",80.9854409351,2.48643767352
"G","G","A","T","G",82.403108918,1.83374950365
"G","G","A","T","T",74.3306080516,1.72702822743
"G","G","C","A","A",114.652215996,1.93557483096
"G","G","C","A","C",106.130718532,1.54536637165
"G","G","C","A","G",112.184042417,1.89788539294
"G","G","C","A","T",105.809110435,1.72349495095
"G","G","C","C","A",115.130622487,1.7186506635
"G","G","C","C","C",111.709391466,1.67377869812
"G","G","C","C","G",114.277118182,1.74878031124
"G","G","C","C","T",111.555565784,1.67030576454
"G","G","C","G","A",109.812298893,1.83627366006
"G","G","C","G","C",106.457464096,1.66732867589
"G","G","C","G","G",109.670852273,1.8356265132
"G","G","C","G","T",106.325817403,1.91736062222
"G","G","C","T","A",108.52228794,1.64104115198
"G","G","C","T","C",100.792793013,1.79177715368
"G","G","C","T","G",104.958991646,1.60964500194
"G","G","C","T","T",94.616448164,1.41752857798
"G","G","G","A","A",81.7865913742,1.68435343984
"G","G","G","A","C",70.8584214754,2.26562059617
"G","G","G","A","G",79.3346328223,1.63122765518
"G","G","G","A","T",70.5012833663,1.94119516887
"G","G","G","C","A",93.3042270813,1.64715343065
"G","G","G","C","C",90.2039925511,1.73904659823
"G","G","G","C","G",91.4689323938,1.59643744136
"G","G","G","C","T",88.9448376933,1.50700089758
"G","G","G","G","A",83.9391649682,1.44278841175
"G","G","G","G","C",78.5101698676,1.69954848015
"G","G","G","G","G",84.6014039141,1.32780350945
"G","G","G","G","T",78.1321608166,1.47014180383
"G","G","G","T","A",81.7361460586,1.79297415959
"G","G","G","T","C",76.352784756,1.94071121029
"G","G","G","T","G",77.8465692867,1.78796612394
"G","G","G","T","T",70.021623498,1.89099010441
"G","G","T","A","A",116.460046576,2.49151467358
"G","G","T","A","C",111.009225427,2.10318168678
"G","G","T","A","G",114.102809166,2.34960785075
"G","G","T","A","T",112.891247405,2.53428116118
"G","G","T","C","A",123.729906913,2.53699557213
"G","G","T","C","C",122.351048904,2.38765465502
"G","G","T","C","G",123.414309838,2.71109510165
"G","G","T","C","T",123.658698699,2.70386905421
"G","G","T","G","A",113.552686101,2.36703826399
"G","G","T","G","C",113.342833647,2.19864630038
"G","G","T","G","G",114.517693675,2.29150895321
"G","G","T","G","T",116.147608134,2.58970043038
"G","G","T","T","A",110.614785738,2.14770338261
"G","G","T","T","C",105.837714844,2.17907660496
"G","G","T","T","G",108.1445533,1.89172878215
"G","G","T","T","T",101.818036395,1.76558794046
"G","T","A","A","A",102.920303823,1.77710659354
"G","T","A","A","C",94.0927563756,1.93078919579
"G","T","A","A","G",101.160294776,1.80951956128
"G","T","A","A","T",92.9746602665,2.03074132282
"G","T","A","C","A",104.134199002,1.32987617044
"G","T","A","C","C",102.624524967,1.47177579492
"G","T","A","C","G",103.369852731,1.37026484495
"G","T","A","C","T",100.33193853,1.44958650373
"G","T","A","G","A",99.8958248771,1.929845139
"G","T","A","G","C",95.5030417616,1.76126206115
"G","T","A","G","G",100.53329553,1.83624243997
"G","T","A","G","T",93.4833261428,2.05611156718
"G","T","A","T","A",98.9437508194,1.82765787025
"G","T","A","T","C",94.9448526217,2.26155135911
"G","T","A","T","G",96.7914868311,1.90854428592
"G","T","A","T","T",88.8050565209,2.42578862394
"G","T","C","A","A",114.427347406,1.85466841562
"G","T","C","A","C",107.86676391,1.82074863239
"G","T","C","A","G",112.590422245,1.97499062527
"G","T","C","A","T",106.540860929,2.03794686915
"G","T","C","C","A",112.72024515,1.5235326926
"G","T","C","C","C",110.705899911,1.41103044148
"G","T","C","C","G",112.236815609,1.67380327564
"G","T","C","C","T",109.919520309,1.7412176522
"G","T","C","G","A",111.283964779,2.13816400298
"G","T","C","G","C",107.327842684,1.88325027149
"G","T","C","G","G",110.24337381,2.00601245157
"G","T","C","G","T",105.820036614,2.21076755402
"G","T","C","T","A",106.573698099,1.86169037141
"G","T","C","T","C",104.062062612,2.35712848171
"G","T","C","T","G",106.087706837,1.95248183947
"G","T","C","T","T",97.8761686393,2.25065159155
"G","T","G","A","A",96.565504165,2.16025612259
"G","T","G","A","C",86.1752195561,2.12924868264
"G","T","G","A","G",95.9569780381,2.10859113171
"G","T","G","A","T",85.6776398449,2.30394184769
"G","T","G","C","A",102.465157571,1.45925807394
"G","T","G","C","C",100.212420885,1.64825322029
"G","T","G","C","G",101.121579683,1.6253423293
"G","T","G","C","T",98.284571831,1.64913915297
"G","T","G","G","A",97.7691989487,2.22489285724
"G","T","G","G","C",95.3811283402,2.07257328789
"G","T","G","G","G",99.0749838895,2.13501931956
"G","T","G","G","T",93.2671275413,2.31153485891
"G","T","G","T","A",95.0082774276,2.05026639089
"G","T","G","T","C",90.8839643884,2.46784565097
"G","T","G","T","G",91.8379876637,2.18877406079
"G","T","G","T","T",85.3343429938,2.6987805139
"G","T","T","A","A",116.829980398,1.6398561516
"G","T","T","A","C",112.40772427,1.54961423143
"G","T","T","A","G",116.70699257,1.66487644641
"G","T","T","A","T",113.012062958,1.77250455169
"G","T","T","C","A",120.263426129,1.51652129391
"G","T","T","C","C",119.156831522,1.55316531553
"G","T","T","C","G",119.659746365,1.61525173991
"G","T","T","C","T",119.067560089,1.68258813924
"G","T","T","G","A",113.079202198,1.71122322404
"G","T","T","G","C",112.03702292,1.53115688514
"G","T","T","G","G",113.606941871,1.61267322448
"G","T","T","G","T",113.209121936,1.83969607953
"G","T","T","T","A",109.851742445,1.29993116984
"G","T","T","T","C",106.256623704,1.34947439029
"G","T","T","T","G",107.984644877,1.2640494824
"G","T","T","T","T",102.221649493,1.24526291496
"T","A","A","A","A",99.9650166392,1.40265310404
"T","A","A","A","C",90.2237939809,1.61997771624
"T","A","A","A","G",97.1875003592,1.40521265441
"T","A","A","A","T",89.4588767432,1.54778147463
"T","A","A","C","A",101.109556396,1.2843697564
"T","A","A","C","C",98.9074644162,1.33711196253
"T","A","A","C","G",99.9461382222,1.24106038824
"T","A","A","C","T",97.0730822041,1.20883460799
"T","A","A","G","A",96.5246208887,1.45423943
"T","A","A","G","C",91.4679532684,1.3488993605
"T","A","A","G","G",95.6399208192,1.35482009114
"T","A","A","G","T",88.8721012573,1.52515666635
"T","A","A","T","A",95.083477074,1.50791641817
"T","A","A","T","C",87.8661538051,1.76358515773
"T","A","A","T","G",91.6523115152,1.55263170652
"T","A","A","T","T",81.8922944278,1.94838907183
"T","A","C","A","A",117.71062546,1.69904591757
"T","A","C","A","C",110.429965789,1.37710497477
"T","A","C","A","G",115.330424903,1.74618393329
"T","A","C","A","T",109.829145709,1.61720291556
"T","A","C","C","A",117.501798198,1.51984131804
"T","A","C","C","C",114.855070884,1.34011152444
"T","A","C","C","G",115.794312853,1.45966287418
"T","A","C","C","T",113.824938507,1.51429083467
"T","A","C","G","A",112.345441158,1.65301346273
"T","A","C","G","C",108.838424127,1.43423726695
"T","A","C","G","G",112.358174638,1.63423074097
"T","A","C","G","T",108.963152831,1.66571379729
"T","A","C","T","A",110.931590636,1.41771154148
"T","A","C","T","C",103.664244457,1.58243970526
"T","A","C","T","G",107.391974093,1.38796512768
"T","A","C","T","T",97.0186155044,1.42423923556
"T","A","G","A","A",91.1038105875,1.69251275727
"T","A","G","A","C",80.1705110849,1.97565893761
"T","A","G","A","G",88.7050672438,1.56738768191
"T","A","G","A","T",80.1929613263,1.84749743267
"T","A","G","C","A",97.1166086746,1.33533625108
"T","A","G","C","C",94.4172051913,1.43842470074
"T","A","G","C","G",94.7515101631,1.41532698723
"T","A","G","C","T",92.2071480122,1.34145592278
"T","A","G","G","A",89.2305782659,1.73797530526
"T","A","G","G","C",85.2444726065,1.67492849757
"T","A","G","G","G",88.9957418657,1.61804115684
"T","A","G","G","T",84.3752207559,1.67085365958
"T","A","G","T","A",86.4370318939,1.73466655894
"T","A","G","T","C",80.4556713547,2.28086865774
"T","A","G","T","G",82.9888672762,2.09138973277
"T","A","G","T","T",73.2888259417,2.14714434029
"T","A","T","A","A",123.355925982,2.36698078276
"T","A","T","A","C",119.286265762,2.33917098643
"T","A","T","A","G",120.390957751,2.24508069223
"T","A","T","A","T",121.925803648,2.72856285768
"T","A","T","C","A",132.002417639,2.36584633659
"T","A","T","C","C",131.086776597,2.30518752388
"T","A","T","C","G",130.410266621,2.41691549825
"T","A","T","C","T",131.727161865,2.51217425607
"T","A","T","G","A",118.973147291,2.23343636373
"T","A","T","G","C",119.506857404,2.22508597263
"T","A","T","G","G",119.424245031,2.16893890456
"T","A","T","G","T",122.118942323,2.77150741996
"T","A","T","T","A",117.232367123,1.88262573266
"T","A","T","T","C",112.874266564,1.83099118747
"T","A","T","T","G",114.266697599,1.74701902185
"T","A","T","T","T",108.31142223,1.62356484823
"T","C","A","A","A",102.885451491,1.90919331179
"T","C","A","A","C",94.5835907045,1.81279001413
"T","C","A","A","G",101.622404552,1.79830314744
"T","C","A","A","T",92.9800901125,1.97770512854
"T","C","A","C","A",105.645046529,1.24378260888
"T","C","A","C","C",103.094275174,1.35321542375
"T","C","A","C","G",103.999425733,1.28539429199
"T","C","A","C","T",100.85208989,1.30944337062
"T","C","A","G","A",98.2844103824,1.93389775534
"T","C","A","G","C",93.969125761,1.6384629124
"T","C","A","G","G",97.3634047108,1.7988627351
"T","C","A","G","T",91.1880457697,1.96181553994
"T","C","A","T","A",98.0525962247,1.74196746884
"T","C","A","T","C",92.8839761875,2.16096024419
"T","C","A","T","G",95.5697745572,1.87793721636
"T","C","A","T","T",86.1018164086,2.25508438026
"T","C","C","A","A",114.169369512,1.38714759318
"T","C","C","A","C",107.76141479,1.28840604622
"T","C","C","A","G",111.32165759,1.42759354867
"T","C","C","A","T",105.784378874,1.56435159906
"T","C","C","C","A",113.580972055,1.17627954224
"T","C","C","C","C",110.873923489,1.23510163006
"T","C","C","C","G",112.27898112,1.18060846161
"T","C","C","C","T",109.858108358,1.23694987653
"T","C","C","G","A",107.629319049,1.64634956634
"T","C","C","G","C",105.708932421,1.35547242925
"T","C","C","G","G",108.096636058,1.47580864062
"T","C","C","G","T",103.910729424,1.66435639643
"T","C","C","T","A",107.981691304,1.50553033132
"T","C","C","T","C",101.531832676,1.78917316046
"T","C","C","T","G",104.37111482,1.52186480256
"T","C","C","T","T",96.4554037894,1.9083901418
"T","C","G","A","A",95.5943130076,1.90767127681
"T","C","G","A","C",86.4777202441,1.9285625778
"T","C","G","A","G",93.710892,1.83454260255
"T","C","G","A","T",85.0392318224,1.87436971811
"T","C","G","C","A",100.07719119,1.41510755103
"T","C","G","C","C",96.9740604704,1.60146916299
"T","C","G","C","G",98.3223958483,1.55728083925
"T","C","G","C","T",94.7682402768,1.52081932554
"T","C","G","G","A",93.7893437231,2.05818563376
"T","C","G","G","C",90.5638022157,1.77364691266
"T","C","G","G","G",94.7812600268,1.9284749674
"T","C","G","G","T",88.4318234207,2.11987683069
"T","C","G","T","A",90.867009804,1.98572810756
"T","C","G","T","C",85.3117513052,2.40933239448
"T","C","G","T","G",86.6222640495,2.14681813649
"T","C","G","T","T",77.6459235004,2.2518978671
"T","C","T","A","A",120.874613373,2.06697855735
"T","C","T","A","C",118.463818726,1.88450824624
"T","C","T","A","G",120.74709842,1.81023177346
"T","C","T","A","T",119.100643544,2.33241999074
"T","C","T","C","A",127.319743676,2.02110009607
"T","C","T","C","C",126.01477972,1.94217508285
"T","C","T","C","G",126.266577442,1.98664005295
"T","C","T","C","T",126.20110623,2.15869845619
"T","C","T","G","A",116.978430073,1.95392076709
"T","C","T","G","C",116.245147854,1.90573900669
"T","C","T","G","G",116.851631414,1.97791910183
"T","C","T","G","T",117.657738097,2.24532259289
"T","C","T","T","A",113.788762897,1.56863211108
"T","C","T","T","C",110.167151568,1.6615415712
"T","C","T","T","G",112.187633879,1.55821313216
"T","C","T","T","T",105.957974227,1.49759138943
"T","G","A","A","A",89.7304482723,1.52926865405
"T","G","A","A","C",79.6775450056,2.04230430037
"T","G","A","A","G",87.02407593,1.50785054146
"T","G","A","A","T",77.6396730194,1.92759547447
"T","G","A","C","A",94.5801220277,1.5597759636
"T","G","A","C","C",91.7000258113,1.58866168703
"T","G","A","C","G",93.2400011137,1.48472717688
"T","G","A","C","T",90.5238865314,1.45144763936
"T","G","A","G","A",89.1580653606,1.45307055968
"T","G","A","G","C",84.2642872516,1.58071620216
"T","G","A","G","G",88.8850602037,1.34490845312
"T","G","A","G","T",82.9674048726,1.48076004961
"T","G","A","T","A",87.3760126472,1.82457054317
"T","G","A","T","C",82.076216036,2.15599346987
"T","G","A","T","G",84.2101595348,1.78035592812
"T","G","A","T","T",75.6028606077,1.9893540567
"T","G","C","A","A",115.132100116,1.79217177452
"T","G","C","A","C",107.214324177,1.37318724944
"T","G","C","A","G",112.076233924,1.69941107172
"T","G","C","A","T",105.58195034,1.58538266392
"T","G","C","C","A",115.606124146,1.53060946761
"T","G","C","C","C",112.058594175,1.37255443196
"T","G","C","C","G",114.256601584,1.55029850584
"T","G","C","C","T",111.648011973,1.56568505609
"T","G","C","G","A",110.152137979,1.68086476303
"T","G","C","G","C",106.618595175,1.45312138439
"T","G","C","G","G",109.624406601,1.68796994979
"T","G","C","G","T",106.750475501,1.76396251154
"T","G","C","T","A",108.584588544,1.56766319726
"T","G","C","T","C",101.618016668,1.71474446413
"T","G","C","T","G",105.000113495,1.49075407248
"T","G","C","T","T",95.569531021,1.40725426596
"T","G","G","A","A",84.1231594627,1.83765855882
"T","G","G","A","C",72.2369887831,2.21082726294
"T","G","G","A","G",82.0954593013,1.7813880237
"T","G","G","A","T",72.8043379075,2.13845822703
"T","G","G","C","A",95.0145361896,1.41895022818
"T","G","G","C","C",92.0283945234,1.50764701534
"T","G","G","C","G",93.2130124425,1.35614000115
"T","G","G","C","T",90.4359838496,1.36602612578
"T","G","G","G","A",87.0186564109,1.66668306677
"T","G","G","G","C",81.6175678592,1.85671142376
"T","G","G","G","G",87.4419253384,1.44906675585
"T","G","G","G","T",81.008436414,1.68414614522
"T","G","G","T","A",83.8045406483,1.85497989284
"T","G","G","T","C",77.5462048274,2.24541538128
"T","G","G","T","G",80.6183867717,1.98987505388
"T","G","G","T","T",72.3180268137,2.23289557314
"T","G","T","A","A",118.84937578,2.32522045834
"T","G","T","A","C",112.857266544,2.04389194846
"T","G","T","A","G",115.628003915,2.08417620058
"T","G","T","A","T",115.137391137,2.49068937616
"T","G","T","C","A",126.638580231,2.38213691578
"T","G","T","C","C",125.465485194,2.27364607221
"T","G","T","C","G",125.973783989,2.37786878512
"T","G","T","C","T",125.22892688,2.56108377369
"T","G","T","G","A",114.85651898,2.25376951196
"T","G","T","G","C",114.188891779,2.08125682916
"T","G","T","G","G",115.684168698,2.18997268124
"T","G","T","G","T",117.62266219,2.49525495718
"T","G","T","T","A",111.527971352,1.97384517806
"T","G","T","T","C",107.152207652,1.91997639469
"T","G","T","T","G",109.349286043,1.82240750882
"T","G","T","T","T",102.792788919,1.56767515963
"T","T","A","A","A",104.738467448,1.7578017195
"T","T","A","A","C",95.9661423589,1.82933372695
"T","T","A","A","G",102.226628859,1.81435281246
"T","T","A","A","T",95.1261494637,1.98001760416
"T","T","A","C","A",105.859005399,1.24978102112
"T","T","A","C","C",103.496108061,1.35544362862
"T","T","A","C","G",104.389743011,1.26320144861
"T","T","A","C","T",101.963640546,1.37489387084
"T","T","A","G","A",102.172720623,1.70066251487
"T","T","A","G","C",96.7012715608,1.64874609294
"T","T","A","G","G",100.584131646,1.71062674079
"T","T","A","G","T",95.8314939297,2.0536012859
"T","T","A","T","A",100.514870885,1.74824738267
"T","T","A","T","C",95.6820878189,2.17091713912
"T","T","A","T","G",98.0242458377,1.80748561435
"T","T","A","T","T",89.9066325656,2.25406394464
"T","T","C","A","A",113.981370262,1.63665406372
"T","T","C","A","C",107.535692952,1.57647086065
"T","T","C","A","G",112.105720416,1.67378964714
"T","T","C","A","T",106.320361518,1.83598164625
"T","T","C","C","A",112.734939965,1.3126080515
"T","T","C","C","C",109.893049543,1.28210769113
"T","T","C","C","G",111.523571884,1.38262269672
"T","T","C","C","T",108.757772073,1.5011236644
"T","T","C","G","A",109.968801566,1.77533518545
"T","T","C","G","C",106.806099426,1.60768436723
"T","T","C","G","G",109.620568554,1.79311964237
"T","T","C","G","T",104.834072629,1.96936308988
"T","T","C","T","A",108.269524494,1.67721158878
"T","T","C","T","C",102.282970292,2.02455933636
"T","T","C","T","G",105.189499601,1.74600525283
"T","T","C","T","T",96.9430958536,2.09284444942
"T","T","G","A","A",96.6050120397,2.06260169203
"T","T","G","A","C",87.7540349374,1.9037588475
"T","T","G","A","G",96.2362395152,2.04823576469
"T","T","G","A","T",86.075265916,2.1204007169
"T","T","G","C","A",102.711165381,1.35050057747
"T","T","G","C","C",99.5178708236,1.53652000102
"T","T","G","C","G",100.792892424,1.47538378793
"T","T","G","C","T",97.2934286727,1.53739780782
"T","T","G","G","A",99.607144134,2.04850629477
"T","T","G","G","C",94.4547969446,1.84364600957
"T","T","G","G","G",99.3589190074,1.96554977856
"T","T","G","G","T",92.5999900538,2.18425835016
"T","T","G","T","A",94.7685418324,1.9632102355
"T","T","G","T","C",91.1649722273,2.46474668035
"T","T","G","T","G",91.6508388207,2.12182000674
"T","T","G","T","T",84.2775198623,2.47895927926
"T","T","T","A","A",116.880801539,1.59837426568
"T","T","T","A","C",112.998824388,1.47103278591
"T","T","T","A","G",114.921021144,1.49785257633
"T","T","T","A","T",114.094349494,1.71415944331
"T","T","T","C","A",120.711465303,1.64911345514
"T","T","T","C","C",119.8093595,1.61280498722
"T","T","T","C","G",119.461216179,1.70815526903
"T","T","T","C","T",119.752654913,1.73800676687
"T","T","T","G","A",113.068009522,1.54294878574
"T","T","T","G","C",111.406163889,1.47292304335
"T","T","T","G","G",113.145684911,1.5688474148
"T","T","T","G","T",112.764933158,1.84289236387
"T","T","T","T","A",110.522994017,1.27939499359
"T","T","T","T","C",106.421072974,1.34518346587
"T","T","T","T","G",107.734769617,1.26483001651
"T","T","T","T","T",103.142294122,1.193728732
