"A","A","A","A","A",96.3780231598,1.36788891388
"A","A","A","A","C",87.6253284047,1.70267232293
"A","A","A","A","G",93.9840679918,1.39178945858
"A","A","A","A","T",86.1559612993,1.60047208041
"A","A","A","C","A",97.2716066968,1.46748435691
"A","A","A","C","C",94.2079824344,1.49556953332
"A","A","A","C","G",96.1511524299,1.38447134211
"A","A","A","C","T",93.3106094974,1.32378079644
"A","A","A","G","A",93.4161121014,1.41029601939
"A","A","A","G","C",89.1690245917,1.38178881512
"A","A","A","G","G",92.5265845009,1.31558202077
"A","A","A","G","T",87.0889118363,1.46358552089
"A","A","A","T","A",91.4295205894,1.81583519647
"A","A","A","T","C",85.8322344977,2.07530613488
"A","A","A","T","G",89.1059895709,1.72258894443
"A","A","A","T","T",79.3701706109,1.94818347503
"A","A","C","A","A",117.327193971,2.1775753089
"A","A","C","A","C",110.299227732,1.7367725206
"A","A","C","A","G",115.33172731,2.16745741236
"A","A","C","A","T",110.141192157,1.9994448061
"A","A","C","C","A",117.247568344,1.84691601455
"A","A","C","C","C",114.452215355,1.68544002128
"A","A","C","C","G",116.175137529,1.91937621918
"A","A","C","C","T",113.087232053,1.94315081864
"A","A","C","G","A",112.275925669,2.08355302296
"A","A","C","G","C",109.720416977,1.88711158032
"A","A","C","G","G",112.285828467,2.08486139693
"A","A","C","G","T",109.3268239,2.09902171464
"A","A","C","T","A",110.082586631,1.74915651731
"A","A","C","T","C",103.644416153,1.79874238626
"A","A","C","T","G",107.554808187,1.60526979635
"A","A","C","T","T",97.6582339435,1.4635593077
"A","A","G","A","A",89.2132676162,1.69127218879
"A","A","G","A","C",78.6926709982,2.00724268923
"A","A","G","A","G",87.5345722853,1.50315824625
"A","A","G","A","T",78.0829568162,1.9623034087
"A","A","G","C","A",95.8166182516,1.44268362178
"A","A","G","C","C",92.76232361,1.61763278107
"A","A","G","C","G",93.66945693,1.58262671302
"A","A","G","C","T",90.7752086467,1.42235817617
"A","A","G","G","A",87.4029842661,1.65768344776
"A","A","G","G","C",83.1125088391,1.69256984746
"A","A","G","G","G",87.8630420919,1.59487472681
"A","A","G","G","T",81.5571529666,1.80040769748
"A","A","G","T","A",84.3607078928,1.96385120979
"A","A","G","T","C",78.1845904752,2.22334967138
"A","A","G","T","G",81.5722047488,2.07271422056
"A","A","G","T","T",71.9008879967,2.49597332053
"A","A","T","A","A",121.958634305,2.97572201153
"A","A","T","A","C",118.412757125,2.91706268591
"A","A","T","A","G",119.83842344,2.92014888589
"A","A","T","A","T",121.329831747,3.50278658937
"A","A","T","C","A",130.829990242,2.92768568454
"A","A","T","C","C",130.793562133,2.86688358112
"A","A","T","C","G",130.559244236,3.15532795631
"A","A","T","C","T",130.807721778,3.33812159271
"A","A","T","G","A",118.198992702,2.83363218823
"A","A","T","G","C",119.100968036,2.86633207339
"A","A","T","G","G",118.966206247,2.92956378208
"A","A","T","G","T",122.703918239,3.37328193599
"A","A","T","T","A",117.057562279,2.17600225642
"A","A","T","T","C",111.827450752,2.19695232049
"A","A","T","T","G",113.803053058,2.3585777184
"A","A","T","T","T",107.130721623,2.04667162352
"A","C","A","A","A",103.049445014,2.23864798025
"A","C","A","A","C",94.3548106249,2.06162090544
"A","C","A","A","G",101.383987928,2.28015385962
"A","C","A","A","T",92.9305281613,2.55809014419
"A","C","A","C","A",104.447594269,1.28850698882
"A","C","A","C","C",102.823328956,1.47651213919
"A","C","A","C","G",103.61508302,1.37433358579
"A","C","A","C","T",100.175388528,1.55301206779
"A","C","A","G","A",97.8349815118,2.25055740374
"A","C","A","G","C",94.5238415995,1.94105649503
"A","C","A","G","G",97.556172017,2.12727703036
"A","C","A","G","T",90.528305976,2.39927811156
"A","C","A","T","A",98.2832739842,2.02553170503
"A","C","A","T","C",93.0737010548,2.61366154921
"A","C","A","T","G",96.1723947807,2.12403828445
"A","C","A","T","T",85.8746867319,2.66641620621
"A","C","C","A","A",113.648352938,1.69781553931
"A","C","C","A","C",106.837598171,1.50104271506
"A","C","C","A","G",111.840020405,1.76064132592
"A","C","C","A","T",105.428459787,1.81892370459
"A","C","C","C","A",112.149301478,1.26493463805
"A","C","C","C","C",109.29514019,1.26475908231
"A","C","C","C","G",111.562817502,1.31727707618
"A","C","C","C","T",108.347460429,1.37845434875
"A","C","C","G","A",107.582628908,1.76706217532
"A","C","C","G","C",105.209993204,1.65164441119
"A","C","C","G","G",108.194377165,1.8143691915
"A","C","C","G","T",103.039611549,1.92141212834
"A","C","C","T","A",106.478222672,1.81593243078
"A","C","C","T","C",101.923819585,2.14491528228
"A","C","C","T","G",104.22280939,1.72542075404
"A","C","C","T","T",95.0908161034,1.96691997021
"A","C","G","A","A",95.1513562748,2.25372937685
"A","C","G","A","C",86.1056851309,2.23195104541
"A","C","G","A","G",94.2633495929,2.24708928124
"A","C","G","A","T",84.4283944599,2.18222494159
"A","C","G","C","A",99.8360756223,1.55263884733
"A","C","G","C","C",97.5657341383,1.76132887938
"A","C","G","C","G",97.8594772164,1.63259730315
"A","C","G","C","T",95.0350885223,1.81299352069
"A","C","G","G","A",94.1926733188,2.22013773292
"A","C","G","G","C",90.9408127381,1.90395177702
"A","C","G","G","G",95.116684883,2.16352483923
"A","C","G","G","T",88.5957643301,2.37425791483
"A","C","G","T","A",90.7418109364,2.24057837322
"A","C","G","T","C",85.238639538,2.68153947474
"A","C","G","T","G",87.4031025083,2.49248842615
"A","C","G","T","T",78.3771431226,2.82728363346
"A","C","T","A","A",119.560072761,2.07029529684
"A","C","T","A","C",116.589493111,2.1324093259
"A","C","T","A","G",117.478466999,2.18447576902
"A","C","T","A","T",118.399381906,2.3301572797
"A","C","T","C","A",125.374960171,2.36783847912
"A","C","T","C","C",124.857738044,2.13193604403
"A","C","T","C","G",125.578798434,2.1981301297
"A","C","T","C","T",124.841373866,2.37513212526
"A","C","T","G","A",114.916123923,1.97971331825
"A","C","T","G","C",115.000440379,2.02153147831
"A","C","T","G","G",115.647420006,2.05694634682
"A","C","T","G","T",116.44353022,2.48498590185
"A","C","T","T","A",112.139941222,1.7022433672
"A","C","T","T","C",109.038288669,1.75474858005
"A","C","T","T","G",109.895559794,1.55794355017
"A","C","T","T","T",104.652104875,1.59206679324
"A","G","A","A","A",88.825134386,1.48407124294
"A","G","A","A","C",79.0046586235,1.82131094208
"A","G","A","A","G",86.9434601601,1.46696520364
"A","G","A","A","T",78.893153347,1.78619209217
"A","G","A","C","A",93.3327963765,1.85809368815
"A","G","A","C","C",90.3790811076,1.86208038448
"A","G","A","C","G",92.2115914988,1.69898063952
"A","G","A","C","T",89.1459129417,1.56685146796
"A","G","A","G","A",88.1592276133,1.34656104662
"A","G","A","G","C",82.3243395411,1.46532429128
"A","G","A","G","G",88.6495708571,1.3478570054
"A","G","A","G","T",82.2428366034,1.4508796423
"A","G","A","T","A",86.4079916902,1.99570008767
"A","G","A","T","C",82.3241436794,2.55308330251
"A","G","A","T","G",84.0889663839,1.8119088461
"A","G","A","T","T",74.9706420118,1.87082710981
"A","G","C","A","A",115.16902046,2.20940762362
"A","G","C","A","C",107.265656135,1.6918017469
"A","G","C","A","G",112.784372268,2.1661962698
"A","G","C","A","T",107.122758224,1.98489992477
"A","G","C","C","A",115.626514268,1.89838138127
"A","G","C","C","C",113.276358806,1.75393077213
"A","G","C","C","G",114.889211991,1.95696334787
"A","G","C","C","T",112.322986256,1.83420317273
"A","G","C","G","A",110.684978351,2.20158952981
"A","G","C","G","C",107.268458454,1.8735034484
"A","G","C","G","G",110.430505408,2.1775478016
"A","G","C","G","T",107.325008818,2.1962249858
"A","G","C","T","A",108.20022952,1.99842991008
"A","G","C","T","C",101.41322429,1.99193085163
"A","G","C","T","G",106.148879283,1.79342691483
"A","G","C","T","T",95.9155185612,1.54306219949
"A","G","G","A","A",81.5292839847,1.76709249619
"A","G","G","A","C",70.5218637174,2.30226785418
"A","G","G","A","G",80.1372837126,1.76360475539
"A","G","G","A","T",70.0732687267,2.27228619565
"A","G","G","C","A",92.3426420833,1.57840097472
"A","G","G","C","C",88.8891701411,1.72823431831
"A","G","G","C","G",90.9704604573,1.57630478909
"A","G","G","C","T",87.7748739763,1.6265502687
"A","G","G","G","A",83.8147980669,1.50510905446
"A","G","G","G","C",78.4743378772,1.76261017246
"A","G","G","G","G",84.8176334294,1.36143235573
"A","G","G","G","T",77.8476626553,1.68354115507
"A","G","G","T","A",81.5111131801,2.03079707164
"A","G","G","T","C",75.0521088177,2.06521335002
"A","G","G","T","G",77.8683983421,1.9223847667
"A","G","G","T","T",69.7724861688,2.15792880368
"A","G","T","A","A",117.578778064,2.70702774403
"A","G","T","A","C",113.351761452,2.58307928057
"A","G","T","A","G",115.957483908,2.85271061735
"A","G","T","A","T",115.826120077,3.00940856627
"A","G","T","C","A",126.517734647,3.18230478004
"A","G","T","C","C",125.380709467,2.70155011823
"A","G","T","C","G",125.779841513,3.11634833175
"A","G","T","C","T",126.254368684,3.30862986966
"A","G","T","G","A",115.695084992,2.75582013552
"A","G","T","G","C",115.785371103,2.74631783114
"A","G","T","G","G",115.961684301,2.95269551668
"A","G","T","G","T",118.477017672,3.18928634798
"A","G","T","T","A",111.768605825,2.50855582088
"A","G","T","T","C",107.512351214,2.57356957847
"A","G","T","T","G",109.535869966,2.47927381818
"A","G","T","T","T",103.312343801,2.05457332766
"A","T","A","A","A",104.143938013,2.18226249442
"A","T","A","A","C",95.4264216256,2.29011818929
"A","T","A","A","G",102.718848032,2.19387099782
"A","T","A","A","T",94.6126920674,2.477226215
"A","T","A","C","A",104.839479292,1.55941316342
"A","T","A","C","C",103.036109756,1.74117117676
"A","T","A","C","G",104.16154935,1.60685919383
"A","T","A","C","T",101.570178331,1.79538534189
"A","T","A","G","A",101.47035024,2.13773267555
"A","T","A","G","C",97.316476721,2.0876330621
"A","T","A","G","G",101.074654937,2.19938593667
"A","T","A","G","T",95.1032440965,2.57221894135
"A","T","A","T","A",99.6345220571,2.20797690354
"A","T","A","T","C",96.0607457086,2.72400379351
"A","T","A","T","G",97.8807913381,2.3633635143
"A","T","A","T","T",90.2454252215,2.95463662718
"A","T","C","A","A",115.212683989,2.15262564472
"A","T","C","A","C",109.323844647,2.25812087131
"A","T","C","A","G",113.579858824,2.25941586572
"A","T","C","A","T",107.805112834,2.61808603307
"A","T","C","C","A",113.688928959,1.82175177903
"A","T","C","C","C",111.19621474,1.73479686929
"A","T","C","C","G",113.131517291,1.78540431246
"A","T","C","C","T",110.291946416,2.17900572389
"A","T","C","G","A",111.481443685,2.44179596281
"A","T","C","G","C",108.553909658,2.35350013208
"A","T","C","G","G",111.118229768,2.46191224138
"A","T","C","G","T",107.184966868,2.73507528815
"A","T","C","T","A",108.437631259,2.25603775131
"A","T","C","T","C",104.64401987,2.69009715422
"A","T","C","T","G",107.018645284,2.3210746115
"A","T","C","T","T",98.2774753585,2.78585741988
"A","T","G","A","A",97.5370348409,2.65216284787
"A","T","G","A","C",87.3247755977,2.3866410933
"A","T","G","A","G",96.2468908608,2.51229907942
"A","T","G","A","T",87.238219235,2.82327418514
"A","T","G","C","A",103.09578024,1.74535371972
"A","T","G","C","C",101.112741058,1.96439172757
"A","T","G","C","G",101.738213692,1.85018605699
"A","T","G","C","T",98.8527942465,2.03289308389
"A","T","G","G","A",100.576295095,2.78289915542
"A","T","G","G","C",96.7819442403,2.42665838997
"A","T","G","G","G",100.612830186,2.46840448109
"A","T","G","G","T",95.0394091833,2.86091879794
"A","T","G","T","A",96.0488821532,2.52060516946
"A","T","G","T","C",93.2635468266,2.86590243231
"A","T","G","T","G",93.8928714533,2.86034108974
"A","T","G","T","T",87.7006384598,3.17936710859
"A","T","T","A","A",118.385121349,1.73690528082
"A","T","T","A","C",113.66989649,1.62700788434
"A","T","T","A","G",116.791378419,1.7535458555
"A","T","T","A","T",114.217752037,1.91456643008
"A","T","T","C","A",120.297856709,1.73490541163
"A","T","T","C","C",119.025469908,1.64405355286
"A","T","T","C","G",119.520526043,1.68752025108
"A","T","T","C","T",119.981840857,1.83227995752
"A","T","T","G","A",113.663974141,1.7527186186
"A","T","T","G","C",112.511273888,1.54125690005
"A","T","T","G","G",114.18214346,1.6425015652
"A","T","T","G","T",114.137328382,1.87742665095
"A","T","T","T","A",110.276550862,1.33642525676
"A","T","T","T","C",106.491061493,1.4285202726
"A","T","T","T","G",108.425900333,1.30369459035
"A","T","T","T","T",102.420298901,1.35491416527
"C","A","A","A","A",96.1020074485,1.5571460698
"C","A","A","A","C",86.7484505493,1.93030270535
"C","A","A","A","G",94.3838657198,1.57117947145
"C","A","A","A","T",85.9750696554,1.76930230841
"C","A","A","C","A",98.1435140247,1.49554476561
"C","A","A","C","C",95.3009884028,1.65635983824
"C","A","A","C","G",97.1195205427,1.41702164803
"C","A","A","C","T",94.1475102627,1.41894491912
"C","A","A","G","A",93.6487644415,1.64869778552
"C","A","A","G","C",88.9812796513,1.64483610012
"C","A","A","G","G",92.7131676825,1.51357169669
"C","A","A","G","T",86.8591216552,1.74175609084
"C","A","A","T","A",91.4647177603,1.75969093821
"C","A","A","T","C",85.4978002111,2.07295129483
"C","A","A","T","G",88.6755136726,1.81481438606
"C","A","A","T","T",79.1565473634,2.21525727569
"C","A","C","A","A",116.0335191,1.93685263802
"C","A","C","A","C",108.252343881,1.52534220347
"C","A","C","A","G",113.33973791,1.74877107645
"C","A","C","A","T",107.822208272,1.74701520842
"C","A","C","C","A",115.988305928,1.63029870583
"C","A","C","C","C",112.922507591,1.40560600267
"C","A","C","C","G",114.690973593,1.70071798562
"C","A","C","C","T",111.783504371,1.64296902346
"C","A","C","G","A",110.057979745,1.72438916997
"C","A","C","G","C",107.087019511,1.51862902577
"C","A","C","G","G",109.850961808,1.78697169932
"C","A","C","G","T",106.697558445,1.80366746845
"C","A","C","T","A",107.988518366,1.72030707823
"C","A","C","T","C",102.07278258,1.74198521769
"C","A","C","T","G",105.513589301,1.58768222972
"C","A","C","T","T",95.3411370196,1.55288231495
"C","A","G","A","A",87.8547757233,1.88829435412
"C","A","G","A","C",76.9361210063,2.34056506699
"C","A","G","A","G",85.5207165536,1.72193879685
"C","A","G","A","T",76.5504019155,2.22564364278
"C","A","G","C","A",95.5667818778,1.57101308117
"C","A","G","C","C",92.4009930851,1.63045886935
"C","A","G","C","G",93.6414720121,1.5319237179
"C","A","G","C","T",90.3351093839,1.46961220107
"C","A","G","G","A",86.5001227234,1.88503909297
"C","A","G","G","C",82.1160222281,1.91894769578
"C","A","G","G","G",86.9623186971,1.75157665881
"C","A","G","G","T",80.8123241094,1.85875376682
"C","A","G","T","A",84.5085496406,1.98664969503
"C","A","G","T","C",78.3162623196,2.43804307211
"C","A","G","T","G",81.2725457382,2.14555407655
"C","A","G","T","T",72.2107950065,2.59896114292
"C","A","T","A","A",119.014659591,2.53330243966
"C","A","T","A","C",114.960815278,2.36624749418
"C","A","T","A","G",116.108732913,2.41420872259
"C","A","T","A","T",117.400128349,2.83368714936
"C","A","T","C","A",127.508389445,2.75204842675
"C","A","T","C","C",127.292174058,2.78423888312
"C","A","T","C","G",126.833103447,2.79931222875
"C","A","T","C","T",127.502466207,3.0770591996
"C","A","T","G","A",114.741836909,2.64403527555
"C","A","T","G","C",115.383704824,2.49488477617
"C","A","T","G","G",115.274384864,2.59946858379
"C","A","T","G","T",118.789682453,3.0029467257
"C","A","T","T","A",112.817707468,2.28107904559
"C","A","T","T","C",108.768746676,2.25113093242
"C","A","T","T","G",109.706335745,2.0357232433
"C","A","T","T","T",104.388194858,1.83495811865
"C","C","A","A","A",102.581571567,2.10860230581
"C","C","A","A","C",94.2302585298,2.06291927946
"C","C","A","A","G",100.743449613,2.22050010906
"C","C","A","A","T",92.1081184836,2.08424368234
"C","C","A","C","A",105.510690516,1.29326514905
"C","C","A","C","C",103.047239035,1.38020514161
"C","C","A","C","G",104.401486641,1.2706931049
"C","C","A","C","T",100.370499012,1.39571006462
"C","C","A","G","A",97.5905185579,2.11704351804
"C","C","A","G","C",94.1909472207,1.87008649842
"C","C","A","G","G",97.1583172002,1.93321008308
"C","C","A","G","T",90.1956982524,2.1859485976
"C","C","A","T","A",98.0329719122,1.85152263114
"C","C","A","T","C",92.8727669707,2.45306490741
"C","C","A","T","G",95.3623862861,2.02438725439
"C","C","A","T","T",85.4633438729,2.5581122237
"C","C","C","A","A",115.167296045,1.48972499225
"C","C","C","A","C",107.62060603,1.36601547307
"C","C","C","A","G",112.985437627,1.4746763005
"C","C","C","A","T",106.433501088,1.68888668634
"C","C","C","C","A",114.031089196,1.25999453754
"C","C","C","C","C",109.975674786,1.16036899417
"C","C","C","C","G",113.020885374,1.35982930201
"C","C","C","C","T",110.407588452,1.35401646762
"C","C","C","G","A",108.895908413,1.70884333412
"C","C","C","G","C",105.868605602,1.48137401427
"C","C","C","G","G",108.945981799,1.58814676091
"C","C","C","G","T",104.253098202,1.81875493691
"C","C","C","T","A",107.772918126,1.50328292774
"C","C","C","T","C",102.104597542,1.87454726565
"C","C","C","T","G",105.294419784,1.58546862316
"C","C","C","T","T",96.239809684,1.88870924403
"C","C","G","A","A",95.4630787735,2.05471496019
"C","C","G","A","C",85.7981781057,2.20518090716
"C","C","G","A","G",92.8470523803,2.0116531387
"C","C","G","A","T",84.1256673753,2.03736450346
"C","C","G","C","A",100.471025785,1.45941051339
"C","C","G","C","C",97.8093645105,1.57924559561
"C","C","G","C","G",98.5880869649,1.53472778483
"C","C","G","C","T",95.705246578,1.66558513518
"C","C","G","G","A",93.3748767679,2.14334744622
"C","C","G","G","C",90.3396306667,1.88578392358
"C","C","G","G","G",94.3505992944,2.00445644118
"C","C","G","G","T",87.7499609174,2.21926163747
"C","C","G","T","A",90.2864106725,2.13361783647
"C","C","G","T","C",84.9061575857,2.71563014713
"C","C","G","T","G",87.2156210647,2.42613616304
"C","C","G","T","T",77.8642556984,2.61775717245
"C","C","T","A","A",122.047613486,2.43696318406
"C","C","T","A","C",118.903550421,2.40541020795
"C","C","T","A","G",120.039634179,2.29099000707
"C","C","T","A","T",120.531193846,2.80029393979
"C","C","T","C","A",128.486950439,2.5401059828
"C","C","T","C","C",127.518805013,2.52173308853
"C","C","T","C","G",127.690722782,2.48637553446
"C","C","T","C","T",127.552459674,2.6136610205
"C","C","T","G","A",117.620202057,2.34157770429
"C","C","T","G","C",117.09221606,2.28859646854
"C","C","T","G","G",117.44764295,2.41186640027
"C","C","T","G","T",118.839679057,2.6488126705
"C","C","T","T","A",115.025981985,1.80938613738
"C","C","T","T","C",110.614961025,1.97133063579
"C","C","T","T","G",113.233806154,1.79775441526
"C","C","T","T","T",106.437370239,1.72213890168
"C","G","A","A","A",89.4285032091,1.63555748061
"C","G","A","A","C",79.6969124335,2.31042865825
"C","G","A","A","G",87.5557565742,1.62482935949
"C","G","A","A","T",78.2163362634,2.09825724358
"C","G","A","C","A",94.8572401583,1.64485497
"C","G","A","C","C",91.9734423728,1.78005492826
"C","G","A","C","G",93.736775027,1.68762838234
"C","G","A","C","T",90.6941587835,1.55528183646
"C","G","A","G","A",88.3285793858,1.59799040165
"C","G","A","G","C",83.1112761222,1.78414177269
"C","G","A","G","G",88.6143303311,1.44552949651
"C","G","A","G","T",82.4466986341,1.62974696332
"C","G","A","T","A",87.470491269,2.01709744921
"C","G","A","T","C",82.4962076392,2.25798593984
"C","G","A","T","G",85.1613945198,2.0874604663
"C","G","A","T","T",75.4269317804,2.12553133854
"C","G","C","A","A",116.177415749,2.20314286673
"C","G","C","A","C",107.493922587,1.7114614361
"C","G","C","A","G",113.374678181,2.10463118997
"C","G","C","A","T",107.03804034,1.97334510228
"C","G","C","C","A",116.760199539,1.83308899063
"C","G","C","C","C",113.623319832,1.62260021769
"C","G","C","C","G",115.452794989,1.89432998375
"C","G","C","C","T",112.733413135,1.93432551429
"C","G","C","G","A",111.041211797,2.08933804165
"C","G","C","G","C",107.053586985,1.82351319978
"C","G","C","G","G",110.514665848,2.04507256633
"C","G","C","G","T",107.039934384,2.15156471137
"C","G","C","T","A",108.502940754,1.81134768765
"C","G","C","T","C",101.602472857,1.86258508321
"C","G","C","T","G",106.25125945,1.71488734749
"C","G","C","T","T",96.3739609853,1.52733456279
"C","G","G","A","A",82.3378614371,1.99881570049
"C","G","G","A","C",71.1424971379,2.48465573715
"C","G","G","A","G",80.5273556406,1.94203578124
"C","G","G","A","T",70.4176614736,2.38436788246
"C","G","G","C","A",94.497510705,1.64222383787
"C","G","G","C","C",91.6786557771,1.78842487195
"C","G","G","C","G",93.1481364999,1.58034773969
"C","G","G","C","T",89.4445499905,1.46522359489
"C","G","G","G","A",85.7532426628,1.8465124783
"C","G","G","G","C",79.7586990857,2.0339681808
"C","G","G","G","G",85.6769992289,1.64237111711
"C","G","G","G","T",78.9676763925,1.88880362712
"C","G","G","T","A",82.6124176621,2.02192824897
"C","G","G","T","C",76.5218570143,2.6026331699
"C","G","G","T","G",79.2461717963,2.14575723701
"C","G","G","T","T",70.7285182442,2.5747603696
"C","G","T","A","A",118.265735344,2.82968013303
"C","G","T","A","C",112.272822752,2.6870950363
"C","G","T","A","G",115.496736364,2.75623854488
"C","G","T","A","T",115.356438245,3.07398644312
"C","G","T","C","A",127.106150632,3.06798266035
"C","G","T","C","C",126.233474507,3.02962841996
"C","G","T","C","G",126.322515931,3.09200970486
"C","G","T","C","T",126.942738401,3.37913031845
"C","G","T","G","A",113.875857951,2.8272105822
"C","G","T","G","C",114.550658423,2.76759973569
"C","G","T","G","G",115.222612564,2.94491218112
"C","G","T","G","T",117.942204033,3.331828015
"C","G","T","T","A",111.466902881,2.59634199693
"C","G","T","T","C",106.490984492,2.52585449489
"C","G","T","T","G",108.396345918,2.44675839282
"C","G","T","T","T",102.554612118,2.12544312369
"C","T","A","A","A",104.238583028,2.11942968162
"C","T","A","A","C",95.7829006302,2.16551463221
"C","T","A","A","G",103.051755285,2.1651221094
"C","T","A","A","T",94.5946526293,2.57004873107
"C","T","A","C","A",105.988060273,1.53444021575
"C","T","A","C","C",103.823057685,1.76594011588
"C","T","A","C","G",104.923798506,1.65292478107
"C","T","A","C","T",102.234786163,1.89069134444
"C","T","A","G","A",101.020505299,2.4353407502
"C","T","A","G","C",97.6506416738,2.13153076378
"C","T","A","G","G",100.809593279,1.95238982072
"C","T","A","G","T",94.7334274928,2.41304291821
"C","T","A","T","A",100.241772963,2.24286617815
"C","T","A","T","C",96.9044696858,2.73756771838
"C","T","A","T","G",98.4195857535,2.43562434562
"C","T","A","T","T",90.8695251721,2.90635465399
"C","T","C","A","A",114.31080119,2.05062570868
"C","T","C","A","C",108.527236109,2.0416433237
"C","T","C","A","G",112.738183143,2.15477347708
"C","T","C","A","T",107.115282858,2.32911725704
"C","T","C","C","A",113.05550995,1.73867721683
"C","T","C","C","C",110.279511889,1.63179439489
"C","T","C","C","G",112.059057028,1.85498678353
"C","T","C","C","T",109.548273736,1.9188071385
"C","T","C","G","A",110.091986739,2.30762228498
"C","T","C","G","C",107.378310075,2.20994059297
"C","T","C","G","G",110.181669146,2.3872780413
"C","T","C","G","T",106.144838419,2.53721921644
"C","T","C","T","A",107.69388403,2.15610842345
"C","T","C","T","C",103.681436476,2.48781803244
"C","T","C","T","G",105.700245984,2.24218459525
"C","T","C","T","T",98.3071116176,2.62369180518
"C","T","G","A","A",96.7453290657,2.55172657668
"C","T","G","A","C",87.2233105249,2.41543894458
"C","T","G","A","G",95.5007287837,2.5380100712
"C","T","G","A","T",86.8404508777,2.71655945603
"C","T","G","C","A",102.165090405,1.68195771312
"C","T","G","C","C",100.115261492,1.90211539479
"C","T","G","C","G",100.914885584,1.77078328142
"C","T","G","C","T",98.6258406795,1.98826375368
"C","T","G","G","A",98.8962730392,2.55372782138
"C","T","G","G","C",94.7794872881,2.26958311821
"C","T","G","G","G",99.0891070492,2.3943533393
"C","T","G","G","T",93.3783145854,2.78993855805
"C","T","G","T","A",95.0977269925,2.27606519208
"C","T","G","T","C",92.3120117283,3.0169379673
"C","T","G","T","G",93.2876882161,2.76763906194
"C","T","G","T","T",86.6639783924,3.2361188013
"C","T","T","A","A",115.551878182,1.73979578813
"C","T","T","A","C",111.717617744,1.71505353096
"C","T","T","A","G",114.195772769,1.63596102245
"C","T","T","A","T",113.058605849,1.84248125403
"C","T","T","C","A",117.963419234,1.74331089155
"C","T","T","C","C",116.702984042,1.73598423084
"C","T","T","C","G",117.009873118,1.80880729874
"C","T","T","C","T",117.619431574,1.9922625109
"C","T","T","G","A",111.331941826,1.73252604674
"C","T","T","G","C",110.595181954,1.63150705439
"C","T","T","G","G",111.607513693,1.83254892835
"C","T","T","G","T",112.053029219,1.98099110207
"C","T","T","T","A",108.241781054,1.41720611275
"C","T","T","T","C",104.900576882,1.57842189768
"C","T","T","T","G",106.206900897,1.42894748967
"C","T","T","T","T",101.360421909,1.38654281499
"G","A","A","A","A",94.0433076318,1.44112444116
"G","A","A","A","C",84.6454896269,1.61292833899
"G","A","A","A","G",91.7943388048,1.39523207082
"G","A","A","A","T",84.1482636283,1.41242721482
"G","A","A","C","A",96.6676203815,1.76349642435
"G","A","A","C","C",93.4517319861,1.93288677718
"G","A","A","C","G",95.5123296453,1.63888079351
"G","A","A","C","T",92.7076866179,1.56883544292
"G","A","A","G","A",92.2976731576,1.38678464369
"G","A","A","G","C",87.3783417971,1.39693662972
"G","A","A","G","G",91.2559432789,1.33764686751
"G","A","A","G","T",85.2577569614,1.39050183587
"G","A","A","T","A",89.6325011819,1.81905515001
"G","A","A","T","C",83.7198898058,2.06690193645
"G","A","A","T","G",87.3543584984,1.78196006412
"G","A","A","T","T",77.7070805536,1.79469033913
"G","A","C","A","A",116.842295767,2.2941915538
"G","A","C","A","C",108.548976278,1.77503521432
"G","A","C","A","G",113.873299279,2.28211386964
"G","A","C","A","T",108.452926759,2.14312275269
"G","A","C","C","A",116.31346936,1.9031275503
"G","A","C","C","C",114.440773883,1.59210278838
"G","A","C","C","G",114.918087219,1.8924906917
"G","A","C","C","T",112.277463013,1.84830361091
"G","A","C","G","A",111.480036155,2.26550944872
"G","A","C","G","C",108.551836283,1.95003291803
"G","A","C","G","G",111.557061947,2.17896989586
"G","A","C","G","T",108.17797148,2.41227001585
"G","A","C","T","A",109.531620225,1.88861217444
"G","A","C","T","C",102.0487329,1.89780495965
"G","A","C","T","G",106.662452169,1.71116798907
"G","A","C","T","T",96.13747283,1.52796930494
"G","A","G","A","A",85.4057278564,1.66348413076
"G","A","G","A","C",75.0237787834,2.04653305685
"G","A","G","A","G",83.8833968838,1.61929385569
"G","A","G","A","T",73.7725334788,2.12220569821
"G","A","G","C","A",94.6752926641,1.66112257447
"G","A","G","C","C",91.3108664118,1.75885690249
"G","A","G","C","G",92.6466050261,1.61596680306
"G","A","G","C","T",90.0731479539,1.56773756204
"G","A","G","G","A",85.394497819,1.64163960924
"G","A","G","G","C",81.3356782797,1.71321373359
"G","A","G","G","G",85.9702255861,1.54634662595
"G","A","G","G","T",80.2987541978,1.63631115599
"G","A","G","T","A",83.2657567702,1.92842029079
"G","A","G","T","C",76.3806175374,2.32512727922
"G","A","G","T","G",79.7062764464,2.22904499726
"G","A","G","T","T",70.2698906882,2.04180612333
"G","A","T","A","A",121.187391222,3.0279774369
"G","A","T","A","C",117.347115653,2.96319936632
"G","A","T","A","G",119.971752091,2.5493769653
"G","A","T","A","T",120.067271708,3.30054477533
"G","A","T","C","A",130.989172896,3.17384069881
"G","A","T","C","C",131.107190552,3.00252361347
"G","A","T","C","G",130.710132611,3.08685548282
"G","A","T","C","T",130.469208062,3.41184694348
"G","A","T","G","A",117.593353173,2.88925852732
"G","A","T","G","C",118.538999527,2.85253214158
"G","A","T","G","G",118.522333983,2.75164236152
"G","A","T","G","T",121.833874634,3.39725894289
"G","A","T","T","A",114.564941001,2.46104243895
"G","A","T","T","C",110.973841161,2.20316222834
"G","A","T","T","G",112.30784349,2.23910438878
"G","A","T","T","T",106.479189564,2.01669736866
"G","C","A","A","A",101.640059688,2.07919602636
"G","C","A","A","C",93.0743390332,2.01966646361
"G","C","A","A","G",99.8842429257,2.09922730145
"G","C","A","A","T",91.4169623809,2.25376345436
"G","C","A","C","A",103.918395363,1.30153021239
"G","C","A","C","C",101.786192768,1.46638116284
"G","C","A","C","G",102.78022299,1.35931047727
"G","C","A","C","T",99.3479555071,1.45611898911
"G","C","A","G","A",96.9265649459,2.11864010694
"G","C","A","G","C",93.0877629433,1.80517959735
"G","C","A","G","G",96.5939725691,2.01817782128
"G","C","A","G","T",89.576909165,2.24865542053
"G","C","A","T","A",97.2149725165,1.94435002173
"G","C","A","T","C",91.8513056861,2.39557590933
"G","C","A","T","G",94.9000666461,2.0608371121
"G","C","A","T","T",85.2694476941,2.72029774775
"G","C","C","A","A",112.917874084,1.58839414648
"G","C","C","A","C",106.235977643,1.52585504744
"G","C","C","A","G",110.892753106,1.68260586411
"G","C","C","A","T",104.546584457,1.81518388528
"G","C","C","C","A",111.746332269,1.31324985269
"G","C","C","C","C",109.039488718,1.25264060713
"G","C","C","C","G",111.140168846,1.34380600508
"G","C","C","C","T",107.855414806,1.43603954259
"G","C","C","G","A",107.192113277,1.86607038144
"G","C","C","G","C",104.502861438,1.67479600232
"G","C","C","G","G",108.038722151,1.75448574958
"G","C","C","G","T",102.929181471,2.06274671272
"G","C","C","T","A",105.79725016,1.72633369308
"G","C","C","T","C",101.09944989,2.14072596125
"G","C","C","T","G",103.58096037,1.73319314486
"G","C","C","T","T",94.805007761,1.99690476666
"G","C","G","A","A",94.8711867909,2.08226612575
"G","C","G","A","C",85.2585980823,2.22386477525
"G","C","G","A","G",93.3404896544,2.09961207571
"G","C","G","A","T",83.7798256981,2.23227980504
"G","C","G","C","A",99.7277587656,1.50707166899
"G","C","G","C","C",97.198298202,1.63645277541
"G","C","G","C","G",97.7605816548,1.62718776895
"G","C","G","C","T",94.6350449134,1.63473577309
"G","C","G","G","A",93.4574977674,2.36220983944
"G","C","G","G","C",90.3250435281,1.86758428173
"G","C","G","G","G",94.740409018,2.03855471836
"G","C","G","G","T",87.8649551905,2.30363707634
"G","C","G","T","A",89.9522567115,2.21051049218
"G","C","G","T","C",84.3795603348,2.71588028988
"G","C","G","T","G",86.9106108144,2.38135733643
"G","C","G","T","T",77.8450318391,2.84920157658
"G","C","T","A","A",118.760695965,2.16176142025
"G","C","T","A","C",115.430330736,2.0889956948
"G","C","T","A","G",117.212172115,2.09104439597
"G","C","T","A","T",116.361820854,2.32790666875
"G","C","T","C","A",124.282493507,2.3346663206
"G","C","T","C","C",123.628985834,2.09860095082
"G","C","T","C","G",123.83353017,2.40411742031
"G","C","T","C","T",123.665749673,2.36613092937
"G","C","T","G","A",114.159654821,2.05423541004
"G","C","T","G","C",114.014798197,2.03537919325
"G","C","T","G","G",114.800409395,2.05445018396
"G","C","T","G","T",115.307320164,2.37334990927
"G","C","T","T","A",111.827319078,1.65731475488
"G","C","T","T","C",107.987723053,1.74670519045
"G","C","T","T","G",109.751931072,1.60510227027
"G","C","T","T","T",103.894682192,1.58455665806
"G","G","A","A","A",85.8647263637,1.56040689047
"G","G","A","A","C",75.3146520664,1.76779301481
"G","G","A","A","G",83.8150599279,1.48408756069
"G","G","A","A","T",75.2142285653,1.68638747714
"G","G","A","C","A",89.9445265242,1.9520342689
"G","G","A","C","C",86.6313515069,1.95947482766
"G","G","A","C","G",88.8188783335,1.82971876419
"G","G","A","C","T",86.4493224024,1.55188730436
"G","G","A","G","A",85.3576143075,1.4416041627
"G","G","A","G","C",79.6771267719,1.49155700748
"G","G","A","G","G",85.3066252958,1.33694414447
"G","G","A","G","T",79.3879387236,1.35486693599
"G","G","A","T","A",83.3410986757,2.11867076214
"G","G","A","T","C",79.3734060314,2.69857669269
"G","G","A","T","G",81.1254884395,1.96676605187
"G","G","A","T","T",73.5873990311,1.88097219446
"G","G","C","A","A",113.188152515,2.08819086473
"G","G","C","A","C",104.897919401,1.6279029136
"G","G","C","A","G",110.317357591,2.13269156081
"G","G","C","A","T",104.354235752,1.86429481227
"G","G","C","C","A",113.663950051,1.79463888016
"G","G","C","C","C",109.965580751,1.67548141837
"G","G","C","C","G",112.104841686,1.99662782249
"G","G","C","C","T",109.417431016,1.94154917585
"G","G","C","G","A",108.229325367,2.10741977186
"G","G","C","G","C",104.779584387,1.78294559578
"G","G","C","G","G",108.001546314,2.03394755381
"G","G","C","G","T",104.522159975,2.09017374707
"G","G","C","T","A",106.272838953,1.86559534481
"G","G","C","T","C",98.84786522,2.05514182671
"G","G","C","T","G",103.438706455,1.7660480281
"G","G","C","T","T",93.7320802211,1.56937430594
"G","G","G","A","A",80.8134397691,1.78913603124
"G","G","G","A","C",69.7609077047,2.39905778183
"G","G","G","A","G",78.9811343247,1.71013150867
"G","G","G","A","T",69.0416278181,2.24873415335
"G","G","G","C","A",91.6633811423,1.75675226101
"G","G","G","C","C",88.6405567236,1.89065706246
"G","G","G","C","G",90.6622139756,1.6742780202
"G","G","G","C","T",87.3996626106,1.5979306835
"G","G","G","G","A",83.0794817598,1.54241164566
"G","G","G","G","C",77.8656541681,1.84827298086
"G","G","G","G","G",84.0374020969,1.39270754228
"G","G","G","G","T",77.2977829217,1.56795616443
"G","G","G","T","A",81.1354058249,2.13994513986
"G","G","G","T","C",74.4023290163,1.93837541914
"G","G","G","T","G",77.1539100698,1.91703675968
"G","G","G","T","T",69.2055407194,2.16997632221
"G","G","T","A","A",114.819371465,2.76547939097
"G","G","T","A","C",109.569804911,2.40363588872
"G","G","T","A","G",112.628615693,2.71755678011
"G","G","T","A","T",111.902108639,2.96486892498
"G","G","T","C","A",122.183552376,2.72721668284
"G","G","T","C","C",121.878965962,2.76876859652
"G","G","T","C","G",121.776505625,2.70897443588
"G","G","T","C","T",121.991676549,2.85182401315
"G","G","T","G","A",112.174326251,2.56269413346
"G","G","T","G","C",111.677058038,2.59372217209
"G","G","T","G","G",112.692509171,2.66037445349
"G","G","T","G","T",114.948823331,3.1196010506
"G","G","T","T","A",109.072355869,2.26388915149
"G","G","T","T","C",104.600308323,2.37979119978
"G","G","T","T","G",106.529944434,2.10454512872
"G","G","T","T","T",100.50377773,1.89976010207
"G","T","A","A","A",101.880433274,2.04437813923
"G","T","A","A","C",92.9877543163,2.19212893104
"G","T","A","A","G",100.462257716,2.01538092618
"G","T","A","A","T",91.9552901974,2.32180653695
"G","T","A","C","A",103.070260204,1.44050827357
"G","T","A","C","C",101.29524937,1.75379845032
"G","T","A","C","G",102.100789804,1.52582535805
"G","T","A","C","T",99.5323377761,1.64590113036
"G","T","A","G","A",99.3161314002,2.09753435956
"G","T","A","G","C",95.1111668243,2.01936418625
"G","T","A","G","G",98.7126462508,2.16032569747
"G","T","A","G","T",93.1137535788,2.36921247619
"G","T","A","T","A",97.5644825005,2.13364865169
"G","T","A","T","C",93.7839609061,2.70541415309
"G","T","A","T","G",95.2861286385,2.14760831356
"G","T","A","T","T",87.6034029496,2.69822807007
"G","T","C","A","A",113.378457454,2.04834972047
"G","T","C","A","C",106.845844317,2.07213424469
"G","T","C","A","G",111.572314533,2.15481531156
"G","T","C","A","T",105.359326548,2.40161982336
"G","T","C","C","A",112.207325521,1.73068947435
"G","T","C","C","C",108.819042521,1.52085538031
"G","T","C","C","G",111.429178182,1.82808794341
"G","T","C","C","T",108.150546393,2.03277620933
"G","T","C","G","A",109.605931083,2.40632575479
"G","T","C","G","C",106.361211877,2.14930626047
"G","T","C","G","G",109.171823524,2.25787704649
"G","T","C","G","T",105.110964859,2.61242737962
"G","T","C","T","A",105.915934677,2.15041129318
"G","T","C","T","C",103.021677824,2.7208819199
"G","T","C","T","G",104.806291348,2.27189081104
"G","T","C","T","T",96.7318532166,2.57483173797
"G","T","G","A","A",95.9893999298,2.46569955783
"G","T","G","A","C",86.0012760435,2.29160340646
"G","T","G","A","G",94.4806765561,2.29792479878
"G","T","G","A","T",85.2788831296,2.60709064503
"G","T","G","C","A",101.482380618,1.69019366831
"G","T","G","C","C",99.3367959114,1.84093745615
"G","T","G","C","G",100.275496676,1.73990785684
"G","T","G","C","T",97.4742264272,1.96899440145
"G","T","G","G","A",97.6251933438,2.4381027045
"G","T","G","G","C",94.6856175622,2.27149710831
"G","T","G","G","G",98.8405505629,2.3507248205
"G","T","G","G","T",92.9037552755,2.68122597088
"G","T","G","T","A",94.415407313,2.38356687881
"G","T","G","T","C",90.9943193383,3.11010406977
"G","T","G","T","G",91.3365197715,2.75228782014
"G","T","G","T","T",84.7425219415,3.18512087768
"G","T","T","A","A",115.670746917,1.7675291696
"G","T","T","A","C",111.645303072,1.5932000617
"G","T","T","A","G",114.282193404,1.7062648772
"G","T","T","A","T",112.399177479,1.92124156981
"G","T","T","C","A",118.625131623,1.71871837682
"G","T","T","C","C",117.810877516,1.77182938816
"G","T","T","C","G",117.800744927,1.76524255982
"G","T","T","C","T",117.716435418,1.82320059975
"G","T","T","G","A",112.207172846,1.77151206053
"G","T","T","G","C",110.773295003,1.66017784934
"G","T","T","G","G",112.459074309,1.71879898667
"G","T","T","G","T",111.892235868,1.94259854547
"G","T","T","T","A",108.445441393,1.33220106652
"G","T","T","T","C",104.688066653,1.43991329175
"G","T","T","T","G",106.734336175,1.3074883746
"G","T","T","T","T",100.902443588,1.32460430508
"T","A","A","A","A",97.8824999301,1.50022833243
"T","A","A","A","C",88.7149779475,1.84075603037
"T","A","A","A","G",96.2209575138,1.558985508
"T","A","A","A","T",87.8674709231,1.74556604617
"T","A","A","C","A",99.6265034332,1.41215300605
"T","A","A","C","C",96.9155752429,1.44857447281
"T","A","A","C","G",98.6016372328,1.36295436897
"T","A","A","C","T",95.8008761589,1.31033176914
"T","A","A","G","A",95.6024921416,1.63439894796
"T","A","A","G","C",90.6532279035,1.52615472823
"T","A","A","G","G",94.546492912,1.37648144075
"T","A","A","G","T",88.9932146383,1.73355749403
"T","A","A","T","A",93.174186295,1.70550693883
"T","A","A","T","C",86.5983057704,1.94423980928
"T","A","A","T","G",90.3586621675,1.71842849252
"T","A","A","T","T",80.309484722,2.08915172901
"T","A","C","A","A",115.957590975,1.85352936813
"T","A","C","A","C",108.79643885,1.52390667846
"T","A","C","A","G",113.325650586,1.6949156735
"T","A","C","A","T",107.734832151,1.58550927703
"T","A","C","C","A",115.618894815,1.64100596766
"T","A","C","C","C",112.622603548,1.38038809886
"T","A","C","C","G",114.280128032,1.61315518722
"T","A","C","C","T",111.13006141,1.62138233231
"T","A","C","G","A",110.52676311,1.80180209747
"T","A","C","G","C",107.576896016,1.54428803479
"T","A","C","G","G",110.312889145,1.74718884765
"T","A","C","G","T",106.764461588,1.75897517621
"T","A","C","T","A",108.210030501,1.57962116292
"T","A","C","T","C",102.267778971,1.75367225813
"T","A","C","T","G",105.99592813,1.52187650816
"T","A","C","T","T",95.8110145616,1.58806084686
"T","A","G","A","A",89.863972506,1.91359993609
"T","A","G","A","C",78.8410491845,2.2795558314
"T","A","G","A","G",87.9166357915,1.8162982988
"T","A","G","A","T",78.1720579122,2.11992830859
"T","A","G","C","A",95.4858622186,1.53558452357
"T","A","G","C","C",92.7069004638,1.56061866937
"T","A","G","C","G",93.662960543,1.47837857181
"T","A","G","C","T",91.0047232992,1.458300905
"T","A","G","G","A",88.0429109294,2.02330621412
"T","A","G","G","C",83.8633646186,2.01281922408
"T","A","G","G","G",89.3641385616,1.6934043842
"T","A","G","G","T",82.5399180497,1.87993878185
"T","A","G","T","A",85.5130341788,2.00531673738
"T","A","G","T","C",79.3971035251,2.4148725243
"T","A","G","T","G",82.5447777651,2.33082985027
"T","A","G","T","T",72.8410576842,2.65472094555
"T","A","T","A","A",121.66844826,2.59702913597
"T","A","T","A","C",117.925363115,2.41542751886
"T","A","T","A","G",119.444162249,2.40287668775
"T","A","T","A","T",120.137738121,3.1598556357
"T","A","T","C","A",129.87109412,2.79161311556
"T","A","T","C","C",129.736554831,2.62394726214
"T","A","T","C","G",129.528354812,2.84466156781
"T","A","T","C","T",129.856329559,2.64662418573
"T","A","T","G","A",116.971703504,2.51156702873
"T","A","T","G","C",117.954087439,2.47177680339
"T","A","T","G","G",118.290139276,2.51208997907
"T","A","T","G","T",120.968466456,3.08351791419
"T","A","T","T","A",115.642187128,1.99722996797
"T","A","T","T","C",111.261296994,2.04173001461
"T","A","T","T","G",113.078323342,1.96830625073
"T","A","T","T","T",106.901938467,1.79093497383
"T","C","A","A","A",101.898986955,2.10437064042
"T","C","A","A","C",93.5853212213,2.04267882645
"T","C","A","A","G",100.323899248,2.03124368782
"T","C","A","A","T",91.6760785019,2.23583446887
"T","C","A","C","A",103.748549805,1.34800699701
"T","C","A","C","C",101.907575742,1.46564065722
"T","C","A","C","G",102.92953868,1.36153302269
"T","C","A","C","T",99.6791123322,1.50092065257
"T","C","A","G","A",96.6239277846,2.1527315755
"T","C","A","G","C",93.5236063189,1.82023758498
"T","C","A","G","G",96.7773833653,2.09494456523
"T","C","A","G","T",89.8726556975,2.21009362799
"T","C","A","T","A",97.0808573394,1.9073198045
"T","C","A","T","C",92.0650363791,2.33220788185
"T","C","A","T","G",94.7459795807,2.1856913055
"T","C","A","T","T",85.5237569339,2.53272569131
"T","C","C","A","A",112.709825508,1.44571673737
"T","C","C","A","C",105.652069865,1.41657893861
"T","C","C","A","G",110.299004526,1.51210326157
"T","C","C","A","T",104.194110136,1.69838669171
"T","C","C","C","A",111.148689869,1.31258568183
"T","C","C","C","C",109.011548116,1.27710452667
"T","C","C","C","G",110.554234951,1.30788938994
"T","C","C","C","T",107.486356813,1.35228051409
"T","C","C","G","A",106.851079575,1.69794181518
"T","C","C","G","C",104.081842464,1.56034440549
"T","C","C","G","G",106.604128318,1.6478602676
"T","C","C","G","T",102.555313293,1.86487645162
"T","C","C","T","A",105.469074579,1.6223266608
"T","C","C","T","C",100.465137932,2.06940848605
"T","C","C","T","G",103.157852202,1.64764756267
"T","C","C","T","T",94.8096383998,2.03664391151
"T","C","G","A","A",94.5135071691,2.16049603268
"T","C","G","A","C",85.4675631807,2.10189539404
"T","C","G","A","G",92.9973159192,2.11754249487
"T","C","G","A","T",83.6509462874,2.11187623229
"T","C","G","C","A",98.4632310695,1.52731864263
"T","C","G","C","C",96.1318084395,1.70761721316
"T","C","G","C","G",96.7888656103,1.68100925859
"T","C","G","C","T",93.7041351065,1.66107729633
"T","C","G","G","A",92.9258230356,2.35078503949
"T","C","G","G","C",89.7402813084,1.92561694242
"T","C","G","G","G",94.1543290523,2.13792889267
"T","C","G","G","T",87.5604572888,2.46037019969
"T","C","G","T","A",89.590604996,2.24672900729
"T","C","G","T","C",84.3341969167,2.68161445343
"T","C","G","T","G",86.9664639942,2.55919427673
"T","C","G","T","T",77.6052017056,2.68580956042
"T","C","T","A","A",119.708557077,2.24541841104
"T","C","T","A","C",116.468029408,2.27254819073
"T","C","T","A","G",117.010403224,2.31689154963
"T","C","T","A","T",117.602532989,2.51085069967
"T","C","T","C","A",126.115003243,2.23690866328
"T","C","T","C","C",125.085190431,2.20936476551
"T","C","T","C","G",124.787276836,2.29866254482
"T","C","T","C","T",125.088011175,2.57625062847
"T","C","T","G","A",114.901025321,2.18040739518
"T","C","T","G","C",114.852526302,2.08269678423
"T","C","T","G","G",115.388720255,2.15785746891
"T","C","T","G","T",116.433530933,2.3575611062
"T","C","T","T","A",112.728030785,1.87034323987
"T","C","T","T","C",108.868497592,1.85152178201
"T","C","T","T","G",110.677687008,1.72690857586
"T","C","T","T","T",104.962946208,1.59206803541
"T","G","A","A","A",88.344152422,1.65507856034
"T","G","A","A","C",78.3081878484,2.33182397114
"T","G","A","A","G",85.8785895741,1.68211447324
"T","G","A","A","T",76.5201881448,2.13167124481
"T","G","A","C","A",93.3211555057,1.57157482953
"T","G","A","C","C",90.2864262475,1.7748259556
"T","G","A","C","G",92.1838787404,1.64961877906
"T","G","A","C","T",89.2788380832,1.63268199337
"T","G","A","G","A",87.9697217481,1.62244418956
"T","G","A","G","C",82.4027920867,1.73061773701
"T","G","A","G","G",87.6058255401,1.52985649758
"T","G","A","G","T",81.4435905098,1.59625656119
"T","G","A","T","A",85.8064079794,2.01210401233
"T","G","A","T","C",80.7311010691,2.20059489371
"T","G","A","T","G",83.0901007325,1.88654415721
"T","G","A","T","T",74.0499466769,2.23116883048
"T","G","C","A","A",113.323093168,2.00727102469
"T","G","C","A","C",105.423936351,1.49545306986
"T","G","C","A","G",110.680950322,1.82327157064
"T","G","C","A","T",104.735878972,1.68286583722
"T","G","C","C","A",113.906138924,1.62722951812
"T","G","C","C","C",110.378526547,1.4915201358
"T","G","C","C","G",112.531702556,1.67563298452
"T","G","C","C","T",109.620339945,1.73318209034
"T","G","C","G","A",108.057506502,1.8235877317
"T","G","C","G","C",104.861734762,1.56228588078
"T","G","C","G","G",108.255532936,1.85685045254
"T","G","C","G","T",104.842482818,1.78234004455
"T","G","C","T","A",106.686794422,1.59263066593
"T","G","C","T","C",100.051690015,1.78185732477
"T","G","C","T","G",103.797085153,1.62457273188
"T","G","C","T","T",94.2308178395,1.54476546985
"T","G","G","A","A",82.7710855207,1.96612046167
"T","G","G","A","C",72.0704129286,2.68990593305
"T","G","G","A","G",81.6353374713,2.04290531299
"T","G","G","A","T",70.9419012323,2.50979334195
"T","G","G","C","A",93.4628710478,1.48814677672
"T","G","G","C","C",90.5467929774,1.63220151617
"T","G","G","C","G",92.2424880525,1.49213565753
"T","G","G","C","T",88.9986279674,1.44777559791
"T","G","G","G","A",85.5212394494,2.04074749672
"T","G","G","G","C",80.9682773635,2.11192752484
"T","G","G","G","G",86.3667350756,1.72574356613
"T","G","G","G","T",79.6284520185,1.86425331532
"T","G","G","T","A",82.7458510749,2.05318173759
"T","G","G","T","C",77.0285616506,2.60286514718
"T","G","G","T","G",79.6456639215,2.29717660102
"T","G","G","T","T",71.317354175,2.57138953346
"T","G","T","A","A",116.47835614,2.55092577892
"T","G","T","A","C",111.097400514,2.29519278138
"T","G","T","A","G",114.186320644,2.47233512954
"T","G","T","A","T",113.808773859,2.79543760502
"T","G","T","C","A",124.477086776,2.75238462033
"T","G","T","C","C",123.618206705,2.50301539043
"T","G","T","C","G",123.820949913,2.74789141239
"T","G","T","C","T",124.197347703,2.77176357227
"T","G","T","G","A",113.307505404,2.53306662507
"T","G","T","G","C",112.988734443,2.3658229171
"T","G","T","G","G",114.327494185,2.45852635394
"T","G","T","G","T",115.80862814,2.97087215561
"T","G","T","T","A",110.684448176,2.08606742582
"T","G","T","T","C",105.855655629,2.17634850638
"T","G","T","T","G",108.065380359,1.96557370219
"T","G","T","T","T",101.832978133,1.70834989482
"T","T","A","A","A",103.039651666,1.92832712396
"T","T","A","A","C",94.3648827591,2.0881616003
"T","T","A","A","G",101.152477139,1.97176704692
"T","T","A","A","T",93.2766819961,2.35844774799
"T","T","A","C","A",104.241821983,1.41576665086
"T","T","A","C","C",101.997973741,1.61072144176
"T","T","A","C","G",103.092271235,1.41083592072
"T","T","A","C","T",100.621375107,1.56257952724
"T","T","A","G","A",99.8557162646,1.95970929642
"T","T","A","G","C",96.3548303775,1.92075464501
"T","T","A","G","G",99.8346363834,1.99306162184
"T","T","A","G","T",94.026058215,2.34470472134
"T","T","A","T","A",98.8174201764,2.07257769697
"T","T","A","T","C",94.5510504777,2.45418289077
"T","T","A","T","G",96.5455360141,2.01410010667
"T","T","A","T","T",88.8089428588,2.80076977094
"T","T","C","A","A",112.195330852,1.76349562655
"T","T","C","A","C",106.762000063,1.69203611054
"T","T","C","A","G",110.651353148,1.80984576471
"T","T","C","A","T",105.019207077,2.05700457254
"T","T","C","C","A",110.91315067,1.45898689065
"T","T","C","C","C",108.173939454,1.36648953615
"T","T","C","C","G",110.468857426,1.55725417733
"T","T","C","C","T",107.618006261,1.71287071851
"T","T","C","G","A",108.492151938,2.09200065882
"T","T","C","G","C",105.526020788,1.84489666351
"T","T","C","G","G",108.178667963,1.93417358875
"T","T","C","G","T",104.312474491,2.2768008592
"T","T","C","T","A",105.927703046,1.90813124461
"T","T","C","T","C",101.694742752,2.32511448868
"T","T","C","T","G",104.149257504,2.0339371209
"T","T","C","T","T",96.2233212975,2.30499406442
"T","T","G","A","A",95.6352993887,2.32950086772
"T","T","G","A","C",86.1728450545,2.22725348451
"T","T","G","A","G",94.3235512403,2.17740806285
"T","T","G","A","T",85.0054525127,2.42828981634
"T","T","G","C","A",100.825803127,1.54468846352
"T","T","G","C","C",98.5396717262,1.73363560246
"T","T","G","C","G",99.3314171588,1.60304924005
"T","T","G","C","T",96.5425250957,1.67546720053
"T","T","G","G","A",97.211330114,2.40166275039
"T","T","G","G","C",93.7404393334,2.10578719542
"T","T","G","G","G",97.91686151,2.34438274595
"T","T","G","G","T",92.3687537173,2.47383604828
"T","T","G","T","A",93.8282015988,2.32570538207
"T","T","G","T","C",90.0176161463,2.75841310356
"T","T","G","T","G",91.6091386561,2.54995733493
"T","T","G","T","T",84.007975315,2.82526389559
"T","T","T","A","A",115.104669965,1.64717020085
"T","T","T","A","C",111.412251623,1.54380010156
"T","T","T","A","G",113.368408313,1.68103170666
"T","T","T","A","T",112.415383915,1.83399414379
"T","T","T","C","A",118.737200978,1.81945797442
"T","T","T","C","C",117.641807683,1.79992282516
"T","T","T","C","G",117.580677898,1.84157017133
"T","T","T","C","T",118.102147052,1.94507128701
"T","T","T","G","A",111.292591331,1.65839438449
"T","T","T","G","C",110.336222039,1.58401135931
"T","T","T","G","G",111.756696296,1.68901865235
"T","T","T","G","T",111.399235959,1.91014436895
"T","T","T","T","A",108.182297382,1.35374360704
"T","T","T","T","C",104.687887942,1.46836850527
"T","T","T","T","G",106.199826109,1.31339260566
"T","T","T","T","T",100.591324928,1.28333430329
